%!PS-Adobe-2.0
%%Title: task_config/exp_cache_sens_L1/overestimation.eps
%%Creator: gnuplot 4.2 patchlevel 6 
%%CreationDate: Wed Nov 21 15:59:04 2012
%%DocumentFonts: (atend)
%%BoundingBox: 150 50 554 1058
%%Orientation: Landscape
%%Pages: (atend)
%%EndComments
%%BeginProlog
/gnudict 256 dict def
gnudict begin
%
% The following 6 true/false flags may be edited by hand if required
% The unit line width may also be changed
%
/Color true def
/Blacktext false def
/Solid false def
/Dashlength 1 def
/Landscape true def
/Level1 false def
/Rounded false def
/TransparentPatterns false def
/gnulinewidth 5.000 def
/userlinewidth gnulinewidth def
%
/vshift -46 def
/dl1 {
  10.0 Dashlength mul mul
  Rounded { currentlinewidth 0.75 mul sub dup 0 le { pop 0.01 } if } if
} def
/dl2 {
  10.0 Dashlength mul mul
  Rounded { currentlinewidth 0.75 mul add } if
} def
/hpt_ 31.5 def
/vpt_ 31.5 def
/hpt hpt_ def
/vpt vpt_ def
Level1 {} {
/SDict 10 dict def
systemdict /pdfmark known not {
  userdict /pdfmark systemdict /cleartomark get put
} if
SDict begin [
  /Title (task_config/exp_cache_sens_L1/overestimation.eps)
  /Subject (gnuplot plot)
  /Creator (gnuplot 4.2 patchlevel 6 )
  /Author (Sudipta Chattopadhyay,,,)
%  /Producer (gnuplot)
%  /Keywords ()
  /CreationDate (Wed Nov 21 15:59:04 2012)
  /DOCINFO pdfmark
end
} ifelse
%
% Gnuplot Prolog Version 4.2 (August 2006)
%
/M {moveto} bind def
/L {lineto} bind def
/R {rmoveto} bind def
/V {rlineto} bind def
/N {newpath moveto} bind def
/Z {closepath} bind def
/C {setrgbcolor} bind def
/f {rlineto fill} bind def
/vpt2 vpt 2 mul def
/hpt2 hpt 2 mul def
/Lshow {currentpoint stroke M 0 vshift R 
	Blacktext {gsave 0 setgray show grestore} {show} ifelse} def
/Rshow {currentpoint stroke M dup stringwidth pop neg vshift R
	Blacktext {gsave 0 setgray show grestore} {show} ifelse} def
/Cshow {currentpoint stroke M dup stringwidth pop -2 div vshift R 
	Blacktext {gsave 0 setgray show grestore} {show} ifelse} def
/UP {dup vpt_ mul /vpt exch def hpt_ mul /hpt exch def
  /hpt2 hpt 2 mul def /vpt2 vpt 2 mul def} def
/DL {Color {setrgbcolor Solid {pop []} if 0 setdash}
 {pop pop pop 0 setgray Solid {pop []} if 0 setdash} ifelse} def
/BL {stroke userlinewidth 2 mul setlinewidth
	Rounded {1 setlinejoin 1 setlinecap} if} def
/AL {stroke userlinewidth 2 div setlinewidth
	Rounded {1 setlinejoin 1 setlinecap} if} def
/UL {dup gnulinewidth mul /userlinewidth exch def
	dup 1 lt {pop 1} if 10 mul /udl exch def} def
/PL {stroke userlinewidth setlinewidth
	Rounded {1 setlinejoin 1 setlinecap} if} def
% Default Line colors
/LCw {1 1 1} def
/LCb {0 0 0} def
/LCa {0 0 0} def
/LC0 {1 0 0} def
/LC1 {0 1 0} def
/LC2 {0 0 1} def
/LC3 {1 0 1} def
/LC4 {0 1 1} def
/LC5 {1 1 0} def
/LC6 {0 0 0} def
/LC7 {1 0.3 0} def
/LC8 {0.5 0.5 0.5} def
% Default Line Types
/LTw {PL [] 1 setgray} def
/LTb {BL [] LCb DL} def
/LTa {AL [1 udl mul 2 udl mul] 0 setdash LCa setrgbcolor} def
/LT0 {PL [] LC0 DL} def
/LT1 {PL [4 dl1 2 dl2] LC1 DL} def
/LT2 {PL [2 dl1 3 dl2] LC2 DL} def
/LT3 {PL [1 dl1 1.5 dl2] LC3 DL} def
/LT4 {PL [6 dl1 2 dl2 1 dl1 2 dl2] LC4 DL} def
/LT5 {PL [3 dl1 3 dl2 1 dl1 3 dl2] LC5 DL} def
/LT6 {PL [2 dl1 2 dl2 2 dl1 6 dl2] LC6 DL} def
/LT7 {PL [1 dl1 2 dl2 6 dl1 2 dl2 1 dl1 2 dl2] LC7 DL} def
/LT8 {PL [2 dl1 2 dl2 2 dl1 2 dl2 2 dl1 2 dl2 2 dl1 4 dl2] LC8 DL} def
/Pnt {stroke [] 0 setdash gsave 1 setlinecap M 0 0 V stroke grestore} def
/Dia {stroke [] 0 setdash 2 copy vpt add M
  hpt neg vpt neg V hpt vpt neg V
  hpt vpt V hpt neg vpt V closepath stroke
  Pnt} def
/Pls {stroke [] 0 setdash vpt sub M 0 vpt2 V
  currentpoint stroke M
  hpt neg vpt neg R hpt2 0 V stroke
 } def
/Box {stroke [] 0 setdash 2 copy exch hpt sub exch vpt add M
  0 vpt2 neg V hpt2 0 V 0 vpt2 V
  hpt2 neg 0 V closepath stroke
  Pnt} def
/Crs {stroke [] 0 setdash exch hpt sub exch vpt add M
  hpt2 vpt2 neg V currentpoint stroke M
  hpt2 neg 0 R hpt2 vpt2 V stroke} def
/TriU {stroke [] 0 setdash 2 copy vpt 1.12 mul add M
  hpt neg vpt -1.62 mul V
  hpt 2 mul 0 V
  hpt neg vpt 1.62 mul V closepath stroke
  Pnt} def
/Star {2 copy Pls Crs} def
/BoxF {stroke [] 0 setdash exch hpt sub exch vpt add M
  0 vpt2 neg V hpt2 0 V 0 vpt2 V
  hpt2 neg 0 V closepath fill} def
/TriUF {stroke [] 0 setdash vpt 1.12 mul add M
  hpt neg vpt -1.62 mul V
  hpt 2 mul 0 V
  hpt neg vpt 1.62 mul V closepath fill} def
/TriD {stroke [] 0 setdash 2 copy vpt 1.12 mul sub M
  hpt neg vpt 1.62 mul V
  hpt 2 mul 0 V
  hpt neg vpt -1.62 mul V closepath stroke
  Pnt} def
/TriDF {stroke [] 0 setdash vpt 1.12 mul sub M
  hpt neg vpt 1.62 mul V
  hpt 2 mul 0 V
  hpt neg vpt -1.62 mul V closepath fill} def
/DiaF {stroke [] 0 setdash vpt add M
  hpt neg vpt neg V hpt vpt neg V
  hpt vpt V hpt neg vpt V closepath fill} def
/Pent {stroke [] 0 setdash 2 copy gsave
  translate 0 hpt M 4 {72 rotate 0 hpt L} repeat
  closepath stroke grestore Pnt} def
/PentF {stroke [] 0 setdash gsave
  translate 0 hpt M 4 {72 rotate 0 hpt L} repeat
  closepath fill grestore} def
/Circle {stroke [] 0 setdash 2 copy
  hpt 0 360 arc stroke Pnt} def
/CircleF {stroke [] 0 setdash hpt 0 360 arc fill} def
/C0 {BL [] 0 setdash 2 copy moveto vpt 90 450 arc} bind def
/C1 {BL [] 0 setdash 2 copy moveto
	2 copy vpt 0 90 arc closepath fill
	vpt 0 360 arc closepath} bind def
/C2 {BL [] 0 setdash 2 copy moveto
	2 copy vpt 90 180 arc closepath fill
	vpt 0 360 arc closepath} bind def
/C3 {BL [] 0 setdash 2 copy moveto
	2 copy vpt 0 180 arc closepath fill
	vpt 0 360 arc closepath} bind def
/C4 {BL [] 0 setdash 2 copy moveto
	2 copy vpt 180 270 arc closepath fill
	vpt 0 360 arc closepath} bind def
/C5 {BL [] 0 setdash 2 copy moveto
	2 copy vpt 0 90 arc
	2 copy moveto
	2 copy vpt 180 270 arc closepath fill
	vpt 0 360 arc} bind def
/C6 {BL [] 0 setdash 2 copy moveto
	2 copy vpt 90 270 arc closepath fill
	vpt 0 360 arc closepath} bind def
/C7 {BL [] 0 setdash 2 copy moveto
	2 copy vpt 0 270 arc closepath fill
	vpt 0 360 arc closepath} bind def
/C8 {BL [] 0 setdash 2 copy moveto
	2 copy vpt 270 360 arc closepath fill
	vpt 0 360 arc closepath} bind def
/C9 {BL [] 0 setdash 2 copy moveto
	2 copy vpt 270 450 arc closepath fill
	vpt 0 360 arc closepath} bind def
/C10 {BL [] 0 setdash 2 copy 2 copy moveto vpt 270 360 arc closepath fill
	2 copy moveto
	2 copy vpt 90 180 arc closepath fill
	vpt 0 360 arc closepath} bind def
/C11 {BL [] 0 setdash 2 copy moveto
	2 copy vpt 0 180 arc closepath fill
	2 copy moveto
	2 copy vpt 270 360 arc closepath fill
	vpt 0 360 arc closepath} bind def
/C12 {BL [] 0 setdash 2 copy moveto
	2 copy vpt 180 360 arc closepath fill
	vpt 0 360 arc closepath} bind def
/C13 {BL [] 0 setdash 2 copy moveto
	2 copy vpt 0 90 arc closepath fill
	2 copy moveto
	2 copy vpt 180 360 arc closepath fill
	vpt 0 360 arc closepath} bind def
/C14 {BL [] 0 setdash 2 copy moveto
	2 copy vpt 90 360 arc closepath fill
	vpt 0 360 arc} bind def
/C15 {BL [] 0 setdash 2 copy vpt 0 360 arc closepath fill
	vpt 0 360 arc closepath} bind def
/Rec {newpath 4 2 roll moveto 1 index 0 rlineto 0 exch rlineto
	neg 0 rlineto closepath} bind def
/Square {dup Rec} bind def
/Bsquare {vpt sub exch vpt sub exch vpt2 Square} bind def
/S0 {BL [] 0 setdash 2 copy moveto 0 vpt rlineto BL Bsquare} bind def
/S1 {BL [] 0 setdash 2 copy vpt Square fill Bsquare} bind def
/S2 {BL [] 0 setdash 2 copy exch vpt sub exch vpt Square fill Bsquare} bind def
/S3 {BL [] 0 setdash 2 copy exch vpt sub exch vpt2 vpt Rec fill Bsquare} bind def
/S4 {BL [] 0 setdash 2 copy exch vpt sub exch vpt sub vpt Square fill Bsquare} bind def
/S5 {BL [] 0 setdash 2 copy 2 copy vpt Square fill
	exch vpt sub exch vpt sub vpt Square fill Bsquare} bind def
/S6 {BL [] 0 setdash 2 copy exch vpt sub exch vpt sub vpt vpt2 Rec fill Bsquare} bind def
/S7 {BL [] 0 setdash 2 copy exch vpt sub exch vpt sub vpt vpt2 Rec fill
	2 copy vpt Square fill Bsquare} bind def
/S8 {BL [] 0 setdash 2 copy vpt sub vpt Square fill Bsquare} bind def
/S9 {BL [] 0 setdash 2 copy vpt sub vpt vpt2 Rec fill Bsquare} bind def
/S10 {BL [] 0 setdash 2 copy vpt sub vpt Square fill 2 copy exch vpt sub exch vpt Square fill
	Bsquare} bind def
/S11 {BL [] 0 setdash 2 copy vpt sub vpt Square fill 2 copy exch vpt sub exch vpt2 vpt Rec fill
	Bsquare} bind def
/S12 {BL [] 0 setdash 2 copy exch vpt sub exch vpt sub vpt2 vpt Rec fill Bsquare} bind def
/S13 {BL [] 0 setdash 2 copy exch vpt sub exch vpt sub vpt2 vpt Rec fill
	2 copy vpt Square fill Bsquare} bind def
/S14 {BL [] 0 setdash 2 copy exch vpt sub exch vpt sub vpt2 vpt Rec fill
	2 copy exch vpt sub exch vpt Square fill Bsquare} bind def
/S15 {BL [] 0 setdash 2 copy Bsquare fill Bsquare} bind def
/D0 {gsave translate 45 rotate 0 0 S0 stroke grestore} bind def
/D1 {gsave translate 45 rotate 0 0 S1 stroke grestore} bind def
/D2 {gsave translate 45 rotate 0 0 S2 stroke grestore} bind def
/D3 {gsave translate 45 rotate 0 0 S3 stroke grestore} bind def
/D4 {gsave translate 45 rotate 0 0 S4 stroke grestore} bind def
/D5 {gsave translate 45 rotate 0 0 S5 stroke grestore} bind def
/D6 {gsave translate 45 rotate 0 0 S6 stroke grestore} bind def
/D7 {gsave translate 45 rotate 0 0 S7 stroke grestore} bind def
/D8 {gsave translate 45 rotate 0 0 S8 stroke grestore} bind def
/D9 {gsave translate 45 rotate 0 0 S9 stroke grestore} bind def
/D10 {gsave translate 45 rotate 0 0 S10 stroke grestore} bind def
/D11 {gsave translate 45 rotate 0 0 S11 stroke grestore} bind def
/D12 {gsave translate 45 rotate 0 0 S12 stroke grestore} bind def
/D13 {gsave translate 45 rotate 0 0 S13 stroke grestore} bind def
/D14 {gsave translate 45 rotate 0 0 S14 stroke grestore} bind def
/D15 {gsave translate 45 rotate 0 0 S15 stroke grestore} bind def
/DiaE {stroke [] 0 setdash vpt add M
  hpt neg vpt neg V hpt vpt neg V
  hpt vpt V hpt neg vpt V closepath stroke} def
/BoxE {stroke [] 0 setdash exch hpt sub exch vpt add M
  0 vpt2 neg V hpt2 0 V 0 vpt2 V
  hpt2 neg 0 V closepath stroke} def
/TriUE {stroke [] 0 setdash vpt 1.12 mul add M
  hpt neg vpt -1.62 mul V
  hpt 2 mul 0 V
  hpt neg vpt 1.62 mul V closepath stroke} def
/TriDE {stroke [] 0 setdash vpt 1.12 mul sub M
  hpt neg vpt 1.62 mul V
  hpt 2 mul 0 V
  hpt neg vpt -1.62 mul V closepath stroke} def
/PentE {stroke [] 0 setdash gsave
  translate 0 hpt M 4 {72 rotate 0 hpt L} repeat
  closepath stroke grestore} def
/CircE {stroke [] 0 setdash 
  hpt 0 360 arc stroke} def
/Opaque {gsave closepath 1 setgray fill grestore 0 setgray closepath} def
/DiaW {stroke [] 0 setdash vpt add M
  hpt neg vpt neg V hpt vpt neg V
  hpt vpt V hpt neg vpt V Opaque stroke} def
/BoxW {stroke [] 0 setdash exch hpt sub exch vpt add M
  0 vpt2 neg V hpt2 0 V 0 vpt2 V
  hpt2 neg 0 V Opaque stroke} def
/TriUW {stroke [] 0 setdash vpt 1.12 mul add M
  hpt neg vpt -1.62 mul V
  hpt 2 mul 0 V
  hpt neg vpt 1.62 mul V Opaque stroke} def
/TriDW {stroke [] 0 setdash vpt 1.12 mul sub M
  hpt neg vpt 1.62 mul V
  hpt 2 mul 0 V
  hpt neg vpt -1.62 mul V Opaque stroke} def
/PentW {stroke [] 0 setdash gsave
  translate 0 hpt M 4 {72 rotate 0 hpt L} repeat
  Opaque stroke grestore} def
/CircW {stroke [] 0 setdash 
  hpt 0 360 arc Opaque stroke} def
/BoxFill {gsave Rec 1 setgray fill grestore} def
/Density {
  /Fillden exch def
  currentrgbcolor
  /ColB exch def /ColG exch def /ColR exch def
  /ColR ColR Fillden mul Fillden sub 1 add def
  /ColG ColG Fillden mul Fillden sub 1 add def
  /ColB ColB Fillden mul Fillden sub 1 add def
  ColR ColG ColB setrgbcolor} def
/BoxColFill {gsave Rec PolyFill} def
/PolyFill {gsave Density fill grestore grestore} def
/h {rlineto rlineto rlineto gsave closepath fill grestore} bind def
%
% PostScript Level 1 Pattern Fill routine for rectangles
% Usage: x y w h s a XX PatternFill
%	x,y = lower left corner of box to be filled
%	w,h = width and height of box
%	  a = angle in degrees between lines and x-axis
%	 XX = 0/1 for no/yes cross-hatch
%
/PatternFill {gsave /PFa [ 9 2 roll ] def
  PFa 0 get PFa 2 get 2 div add PFa 1 get PFa 3 get 2 div add translate
  PFa 2 get -2 div PFa 3 get -2 div PFa 2 get PFa 3 get Rec
  gsave 1 setgray fill grestore clip
  currentlinewidth 0.5 mul setlinewidth
  /PFs PFa 2 get dup mul PFa 3 get dup mul add sqrt def
  0 0 M PFa 5 get rotate PFs -2 div dup translate
  0 1 PFs PFa 4 get div 1 add floor cvi
	{PFa 4 get mul 0 M 0 PFs V} for
  0 PFa 6 get ne {
	0 1 PFs PFa 4 get div 1 add floor cvi
	{PFa 4 get mul 0 2 1 roll M PFs 0 V} for
 } if
  stroke grestore} def
%
/languagelevel where
 {pop languagelevel} {1} ifelse
 2 lt
	{/InterpretLevel1 true def}
	{/InterpretLevel1 Level1 def}
 ifelse
%
% PostScript level 2 pattern fill definitions
%
/Level2PatternFill {
/Tile8x8 {/PaintType 2 /PatternType 1 /TilingType 1 /BBox [0 0 8 8] /XStep 8 /YStep 8}
	bind def
/KeepColor {currentrgbcolor [/Pattern /DeviceRGB] setcolorspace} bind def
<< Tile8x8
 /PaintProc {0.5 setlinewidth pop 0 0 M 8 8 L 0 8 M 8 0 L stroke} 
>> matrix makepattern
/Pat1 exch def
<< Tile8x8
 /PaintProc {0.5 setlinewidth pop 0 0 M 8 8 L 0 8 M 8 0 L stroke
	0 4 M 4 8 L 8 4 L 4 0 L 0 4 L stroke}
>> matrix makepattern
/Pat2 exch def
<< Tile8x8
 /PaintProc {0.5 setlinewidth pop 0 0 M 0 8 L
	8 8 L 8 0 L 0 0 L fill}
>> matrix makepattern
/Pat3 exch def
<< Tile8x8
 /PaintProc {0.5 setlinewidth pop -4 8 M 8 -4 L
	0 12 M 12 0 L stroke}
>> matrix makepattern
/Pat4 exch def
<< Tile8x8
 /PaintProc {0.5 setlinewidth pop -4 0 M 8 12 L
	0 -4 M 12 8 L stroke}
>> matrix makepattern
/Pat5 exch def
<< Tile8x8
 /PaintProc {0.5 setlinewidth pop -2 8 M 4 -4 L
	0 12 M 8 -4 L 4 12 M 10 0 L stroke}
>> matrix makepattern
/Pat6 exch def
<< Tile8x8
 /PaintProc {0.5 setlinewidth pop -2 0 M 4 12 L
	0 -4 M 8 12 L 4 -4 M 10 8 L stroke}
>> matrix makepattern
/Pat7 exch def
<< Tile8x8
 /PaintProc {0.5 setlinewidth pop 8 -2 M -4 4 L
	12 0 M -4 8 L 12 4 M 0 10 L stroke}
>> matrix makepattern
/Pat8 exch def
<< Tile8x8
 /PaintProc {0.5 setlinewidth pop 0 -2 M 12 4 L
	-4 0 M 12 8 L -4 4 M 8 10 L stroke}
>> matrix makepattern
/Pat9 exch def
/Pattern1 {PatternBgnd KeepColor Pat1 setpattern} bind def
/Pattern2 {PatternBgnd KeepColor Pat2 setpattern} bind def
/Pattern3 {PatternBgnd KeepColor Pat3 setpattern} bind def
/Pattern4 {PatternBgnd KeepColor Landscape {Pat5} {Pat4} ifelse setpattern} bind def
/Pattern5 {PatternBgnd KeepColor Landscape {Pat4} {Pat5} ifelse setpattern} bind def
/Pattern6 {PatternBgnd KeepColor Landscape {Pat9} {Pat6} ifelse setpattern} bind def
/Pattern7 {PatternBgnd KeepColor Landscape {Pat8} {Pat7} ifelse setpattern} bind def
} def
%
%
%End of PostScript Level 2 code
%
/PatternBgnd {
  TransparentPatterns {} {gsave 1 setgray fill grestore} ifelse
} def
%
% Substitute for Level 2 pattern fill codes with
% grayscale if Level 2 support is not selected.
%
/Level1PatternFill {
/Pattern1 {0.250 Density} bind def
/Pattern2 {0.500 Density} bind def
/Pattern3 {0.750 Density} bind def
/Pattern4 {0.125 Density} bind def
/Pattern5 {0.375 Density} bind def
/Pattern6 {0.625 Density} bind def
/Pattern7 {0.875 Density} bind def
} def
%
% Now test for support of Level 2 code
%
Level1 {Level1PatternFill} {Level2PatternFill} ifelse
%
/Symbol-Oblique /Symbol findfont [1 0 .167 1 0 0] makefont
dup length dict begin {1 index /FID eq {pop pop} {def} ifelse} forall
currentdict end definefont pop
end
%%EndProlog
%%Page: 1 1
gnudict begin
gsave
50 50 translate
0.100 0.100 scale
90 rotate
0 -5040 translate
0 setgray
newpath
(Helvetica) findfont 140 scalefont setfont
1.000 UL
LTb
1.000 UL
LTa
854 1258 M
9016 0 V
stroke
LTb
854 1258 M
63 0 V
8953 0 R
-63 0 V
-9037 0 R
( 0) Rshow
1.000 UL
LTb
1.000 UL
LTa
854 1426 M
9016 0 V
stroke
LTb
854 1426 M
63 0 V
8953 0 R
-63 0 V
-9037 0 R
( 0.2) Rshow
1.000 UL
LTb
1.000 UL
LTa
854 1594 M
9016 0 V
stroke
LTb
854 1594 M
63 0 V
8953 0 R
-63 0 V
-9037 0 R
( 0.4) Rshow
1.000 UL
LTb
1.000 UL
LTa
854 1763 M
9016 0 V
stroke
LTb
854 1763 M
63 0 V
8953 0 R
-63 0 V
-9037 0 R
( 0.6) Rshow
1.000 UL
LTb
1.000 UL
LTa
854 1931 M
9016 0 V
stroke
LTb
854 1931 M
63 0 V
8953 0 R
-63 0 V
-9037 0 R
( 0.8) Rshow
1.000 UL
LTb
1.000 UL
LTa
854 2099 M
9016 0 V
stroke
LTb
854 2099 M
63 0 V
8953 0 R
-63 0 V
-9037 0 R
( 1) Rshow
1.000 UL
LTb
1.000 UL
LTa
854 2267 M
9016 0 V
stroke
LTb
854 2267 M
63 0 V
8953 0 R
-63 0 V
-9037 0 R
( 1.2) Rshow
1.000 UL
LTb
1.000 UL
LTa
854 2436 M
9016 0 V
stroke
LTb
854 2436 M
63 0 V
8953 0 R
-63 0 V
-9037 0 R
( 1.4) Rshow
1.000 UL
LTb
1.000 UL
LTa
854 2604 M
9016 0 V
stroke
LTb
854 2604 M
63 0 V
8953 0 R
-63 0 V
-9037 0 R
( 1.6) Rshow
1.000 UL
LTb
1.000 UL
LTa
854 2772 M
9016 0 V
stroke
LTb
854 2772 M
63 0 V
8953 0 R
-63 0 V
-9037 0 R
( 1.8) Rshow
1.000 UL
LTb
1.000 UL
LTa
1856 1258 M
0 1514 V
stroke
LTb
1856 1258 M
0 63 V
0 1451 R
0 -63 V
0 -1535 R
currentpoint gsave translate -45 rotate 0 0 M
(1-way, 512 bytes) Lshow
grestore
1.000 UL
LTb
1.000 UL
LTa
2858 1258 M
0 1514 V
stroke
LTb
2858 1258 M
0 63 V
0 1451 R
0 -63 V
0 -1535 R
currentpoint gsave translate -45 rotate 0 0 M
(2-way, 512 bytes) Lshow
grestore
1.000 UL
LTb
1.000 UL
LTa
3859 1258 M
0 1514 V
stroke
LTb
3859 1258 M
0 63 V
0 1451 R
0 -63 V
0 -1535 R
currentpoint gsave translate -45 rotate 0 0 M
(1-way, 1 KB) Lshow
grestore
1.000 UL
LTb
1.000 UL
LTa
4861 1258 M
0 1514 V
stroke
LTb
4861 1258 M
0 63 V
0 1451 R
0 -63 V
0 -1535 R
currentpoint gsave translate -45 rotate 0 0 M
(2-way, 1 KB) Lshow
grestore
1.000 UL
LTb
1.000 UL
LTa
5863 1258 M
0 1514 V
stroke
LTb
5863 1258 M
0 63 V
0 1451 R
0 -63 V
0 -1535 R
currentpoint gsave translate -45 rotate 0 0 M
(1-way, 2 KB) Lshow
grestore
1.000 UL
LTb
1.000 UL
LTa
6865 1258 M
0 1514 V
stroke
LTb
6865 1258 M
0 63 V
0 1451 R
0 -63 V
0 -1535 R
currentpoint gsave translate -45 rotate 0 0 M
(2-way, 2KB) Lshow
grestore
1.000 UL
LTb
1.000 UL
LTa
7866 1258 M
0 1514 V
stroke
LTb
7866 1258 M
0 63 V
0 1451 R
0 -63 V
0 -1535 R
currentpoint gsave translate -45 rotate 0 0 M
(1-way, 4 KB) Lshow
grestore
1.000 UL
LTb
1.000 UL
LTa
8868 1258 M
0 1514 V
stroke
LTb
8868 1258 M
0 63 V
0 1451 R
0 -63 V
0 -1535 R
currentpoint gsave translate -45 rotate 0 0 M
(2-way, 4KB) Lshow
grestore
1.000 UL
LTb
1.000 UL
LTb
854 2772 N
0 -1514 V
9016 0 V
0 1514 V
-9016 0 V
Z stroke
LCb setrgbcolor
280 2015 M
currentpoint gsave translate 90 rotate 0 0 M
(WCET overestimation ratio \(WCET/SIM\)) Cshow
grestore
LTb
LCb setrgbcolor
5362 98 M
(L1 cache) Cshow
LTb
5362 2982 M
(WCET overestimation sensitivity w.r.t L1 cache size) Cshow
1.000 UP
1.000 UL
LTb
1.000 UL
LTb
7809 3899 M
(only L1 cache + perfect shared bus) Rshow
0.330 7893 3864 399 70 BoxColFill
LTb
7893 3864 N
399 0 V
0 70 V
-399 0 V
0 -70 V
Z stroke
0.330 1577 1258 130 1019 BoxColFill
LTb
1577 1258 N
0 1018 V
129 0 V
0 -1018 V
-129 0 V
Z stroke
0.330 2578 1258 130 1055 BoxColFill
LTb
2578 1258 N
0 1054 V
129 0 V
0 -1054 V
-129 0 V
Z stroke
0.330 3580 1258 130 1016 BoxColFill
LTb
3580 1258 N
0 1015 V
129 0 V
0 -1015 V
-129 0 V
Z stroke
0.330 4582 1258 130 1058 BoxColFill
LTb
4582 1258 N
0 1057 V
129 0 V
0 -1057 V
-129 0 V
Z stroke
0.330 5584 1258 130 988 BoxColFill
LTb
5584 1258 N
0 987 V
129 0 V
0 -987 V
-129 0 V
Z stroke
0.330 6586 1258 129 1050 BoxColFill
LTb
6586 1258 N
0 1049 V
128 0 V
0 -1049 V
-128 0 V
Z stroke
0.330 7587 1258 130 988 BoxColFill
LTb
7587 1258 N
0 987 V
129 0 V
0 -987 V
-129 0 V
Z stroke
0.330 8589 1258 130 1027 BoxColFill
LTb
8589 1258 N
0 1026 V
129 0 V
0 -1026 V
-129 0 V
Z stroke
1.000 UL
LTb
7809 3759 M
(L1 cache + shared L2 cache + perfect shared bus) Rshow
7893 3724 399 70 40 45 2 PatternFill
LTb
7893 3724 N
399 0 V
0 70 V
-399 0 V
0 -70 V
Z stroke
1720 1258 130 1074 40 45 2 PatternFill
LTb
1720 1258 N
0 1073 V
129 0 V
0 -1073 V
-129 0 V
Z stroke
2722 1258 129 1082 40 45 2 PatternFill
LTb
2722 1258 N
0 1081 V
128 0 V
0 -1081 V
-128 0 V
Z stroke
3723 1258 130 1071 40 45 2 PatternFill
LTb
3723 1258 N
0 1070 V
129 0 V
0 -1070 V
-129 0 V
Z stroke
4725 1258 130 1083 40 45 2 PatternFill
LTb
4725 1258 N
0 1082 V
129 0 V
0 -1082 V
-129 0 V
Z stroke
5727 1258 130 1057 40 45 2 PatternFill
LTb
5727 1258 N
0 1056 V
129 0 V
0 -1056 V
-129 0 V
Z stroke
6729 1258 130 1071 40 45 2 PatternFill
LTb
6729 1258 N
0 1070 V
129 0 V
0 -1070 V
-129 0 V
Z stroke
7730 1258 130 1051 40 45 2 PatternFill
LTb
7730 1258 N
0 1050 V
129 0 V
0 -1050 V
-129 0 V
Z stroke
8732 1258 130 1044 40 45 2 PatternFill
LTb
8732 1258 N
0 1043 V
129 0 V
0 -1043 V
-129 0 V
Z stroke
1.000 UL
LTb
7809 3619 M
(L1 cache + vertically partitioned L2 cache + perfect shared bus) Rshow
7893 3584 399 70 BoxFill
LTb
7893 3584 N
399 0 V
0 70 V
-399 0 V
0 -70 V
Z stroke
1863 1258 130 1073 BoxFill
LTb
1863 1258 N
0 1072 V
129 0 V
0 -1072 V
-129 0 V
Z stroke
2865 1258 130 1081 BoxFill
LTb
2865 1258 N
0 1080 V
129 0 V
0 -1080 V
-129 0 V
Z stroke
3866 1258 130 1070 BoxFill
LTb
3866 1258 N
0 1069 V
129 0 V
0 -1069 V
-129 0 V
Z stroke
4868 1258 130 1082 BoxFill
LTb
4868 1258 N
0 1081 V
129 0 V
0 -1081 V
-129 0 V
Z stroke
5870 1258 130 1055 BoxFill
LTb
5870 1258 N
0 1054 V
129 0 V
0 -1054 V
-129 0 V
Z stroke
6872 1258 130 1069 BoxFill
LTb
6872 1258 N
0 1068 V
129 0 V
0 -1068 V
-129 0 V
Z stroke
7874 1258 129 1050 BoxFill
LTb
7874 1258 N
0 1049 V
128 0 V
0 -1049 V
-128 0 V
Z stroke
8875 1258 130 1042 BoxFill
LTb
8875 1258 N
0 1041 V
129 0 V
0 -1041 V
-129 0 V
Z stroke
1.000 UL
LTb
7809 3479 M
(L1 cache + horizontally partitioned L2 cache + perfect shared bus) Rshow
7893 3444 399 70 80 45 0 PatternFill
LTb
7893 3444 N
399 0 V
0 70 V
-399 0 V
0 -70 V
Z stroke
2006 1258 130 1164 80 45 0 PatternFill
LTb
2006 1258 N
0 1163 V
129 0 V
0 -1163 V
-129 0 V
Z stroke
3008 1258 130 1171 80 45 0 PatternFill
LTb
3008 1258 N
0 1170 V
129 0 V
0 -1170 V
-129 0 V
Z stroke
4010 1258 129 1146 80 45 0 PatternFill
LTb
4010 1258 N
0 1145 V
128 0 V
0 -1145 V
-128 0 V
Z stroke
5011 1258 130 1143 80 45 0 PatternFill
LTb
5011 1258 N
0 1142 V
129 0 V
0 -1142 V
-129 0 V
Z stroke
6013 1258 130 1118 80 45 0 PatternFill
LTb
6013 1258 N
0 1117 V
129 0 V
0 -1117 V
-129 0 V
Z stroke
7015 1258 130 1107 80 45 0 PatternFill
LTb
7015 1258 N
0 1106 V
129 0 V
0 -1106 V
-129 0 V
Z stroke
8017 1258 130 1049 80 45 0 PatternFill
LTb
8017 1258 N
0 1048 V
129 0 V
0 -1048 V
-129 0 V
Z stroke
9018 1258 130 1076 80 45 0 PatternFill
LTb
9018 1258 N
0 1075 V
129 0 V
0 -1075 V
-129 0 V
Z stroke
1.000 UL
LTb
7809 3339 M
(L1 cache + shared L2 cache + shared bus) Rshow
7893 3304 399 70 80 -45 1 PatternFill
LTb
7893 3304 N
399 0 V
0 70 V
-399 0 V
0 -70 V
Z stroke
2149 1258 130 1351 80 -45 1 PatternFill
LTb
2149 1258 N
0 1350 V
129 0 V
0 -1350 V
-129 0 V
Z stroke
3151 1258 130 1308 80 -45 1 PatternFill
LTb
3151 1258 N
0 1307 V
129 0 V
0 -1307 V
-129 0 V
Z stroke
4153 1258 130 1166 80 -45 1 PatternFill
LTb
4153 1258 N
0 1165 V
129 0 V
0 -1165 V
-129 0 V
Z stroke
5154 1258 130 1201 80 -45 1 PatternFill
LTb
5154 1258 N
0 1200 V
129 0 V
0 -1200 V
-129 0 V
Z stroke
6156 1258 130 1102 80 -45 1 PatternFill
LTb
6156 1258 N
0 1101 V
129 0 V
0 -1101 V
-129 0 V
Z stroke
7158 1258 130 1139 80 -45 1 PatternFill
LTb
7158 1258 N
0 1138 V
129 0 V
0 -1138 V
-129 0 V
Z stroke
8160 1258 130 1039 80 -45 1 PatternFill
LTb
8160 1258 N
0 1038 V
129 0 V
0 -1038 V
-129 0 V
Z stroke
9162 1258 129 1074 80 -45 1 PatternFill
LTb
9162 1258 N
0 1073 V
128 0 V
0 -1073 V
-128 0 V
Z stroke
1.000 UL
LTb
854 2772 N
0 -1514 V
9016 0 V
0 1514 V
-9016 0 V
Z stroke
1.000 UP
1.000 UL
LTb
stroke
grestore
end
showpage
%%Trailer
%%DocumentFonts: Helvetica
%%Pages: 1
