%!PS-Adobe-2.0
%%Title: task_config/exp_spec_L1/overestimation.eps
%%Creator: gnuplot 4.2 patchlevel 6 
%%CreationDate: Mon Jun 18 17:54:06 2012
%%DocumentFonts: (atend)
%%BoundingBox: 150 50 554 1058
%%Orientation: Landscape
%%Pages: (atend)
%%EndComments
%%BeginProlog
/gnudict 256 dict def
gnudict begin
%
% The following 6 true/false flags may be edited by hand if required
% The unit line width may also be changed
%
/Color true def
/Blacktext false def
/Solid false def
/Dashlength 1 def
/Landscape true def
/Level1 false def
/Rounded false def
/TransparentPatterns false def
/gnulinewidth 5.000 def
/userlinewidth gnulinewidth def
%
/vshift -46 def
/dl1 {
  10.0 Dashlength mul mul
  Rounded { currentlinewidth 0.75 mul sub dup 0 le { pop 0.01 } if } if
} def
/dl2 {
  10.0 Dashlength mul mul
  Rounded { currentlinewidth 0.75 mul add } if
} def
/hpt_ 31.5 def
/vpt_ 31.5 def
/hpt hpt_ def
/vpt vpt_ def
Level1 {} {
/SDict 10 dict def
systemdict /pdfmark known not {
  userdict /pdfmark systemdict /cleartomark get put
} if
SDict begin [
  /Title (task_config/exp_spec_L1/overestimation.eps)
  /Subject (gnuplot plot)
  /Creator (gnuplot 4.2 patchlevel 6 )
  /Author (Sudipta Chattopadhyay,,,)
%  /Producer (gnuplot)
%  /Keywords ()
  /CreationDate (Mon Jun 18 17:54:06 2012)
  /DOCINFO pdfmark
end
} ifelse
%
% Gnuplot Prolog Version 4.2 (August 2006)
%
/M {moveto} bind def
/L {lineto} bind def
/R {rmoveto} bind def
/V {rlineto} bind def
/N {newpath moveto} bind def
/Z {closepath} bind def
/C {setrgbcolor} bind def
/f {rlineto fill} bind def
/vpt2 vpt 2 mul def
/hpt2 hpt 2 mul def
/Lshow {currentpoint stroke M 0 vshift R 
	Blacktext {gsave 0 setgray show grestore} {show} ifelse} def
/Rshow {currentpoint stroke M dup stringwidth pop neg vshift R
	Blacktext {gsave 0 setgray show grestore} {show} ifelse} def
/Cshow {currentpoint stroke M dup stringwidth pop -2 div vshift R 
	Blacktext {gsave 0 setgray show grestore} {show} ifelse} def
/UP {dup vpt_ mul /vpt exch def hpt_ mul /hpt exch def
  /hpt2 hpt 2 mul def /vpt2 vpt 2 mul def} def
/DL {Color {setrgbcolor Solid {pop []} if 0 setdash}
 {pop pop pop 0 setgray Solid {pop []} if 0 setdash} ifelse} def
/BL {stroke userlinewidth 2 mul setlinewidth
	Rounded {1 setlinejoin 1 setlinecap} if} def
/AL {stroke userlinewidth 2 div setlinewidth
	Rounded {1 setlinejoin 1 setlinecap} if} def
/UL {dup gnulinewidth mul /userlinewidth exch def
	dup 1 lt {pop 1} if 10 mul /udl exch def} def
/PL {stroke userlinewidth setlinewidth
	Rounded {1 setlinejoin 1 setlinecap} if} def
% Default Line colors
/LCw {1 1 1} def
/LCb {0 0 0} def
/LCa {0 0 0} def
/LC0 {1 0 0} def
/LC1 {0 1 0} def
/LC2 {0 0 1} def
/LC3 {1 0 1} def
/LC4 {0 1 1} def
/LC5 {1 1 0} def
/LC6 {0 0 0} def
/LC7 {1 0.3 0} def
/LC8 {0.5 0.5 0.5} def
% Default Line Types
/LTw {PL [] 1 setgray} def
/LTb {BL [] LCb DL} def
/LTa {AL [1 udl mul 2 udl mul] 0 setdash LCa setrgbcolor} def
/LT0 {PL [] LC0 DL} def
/LT1 {PL [4 dl1 2 dl2] LC1 DL} def
/LT2 {PL [2 dl1 3 dl2] LC2 DL} def
/LT3 {PL [1 dl1 1.5 dl2] LC3 DL} def
/LT4 {PL [6 dl1 2 dl2 1 dl1 2 dl2] LC4 DL} def
/LT5 {PL [3 dl1 3 dl2 1 dl1 3 dl2] LC5 DL} def
/LT6 {PL [2 dl1 2 dl2 2 dl1 6 dl2] LC6 DL} def
/LT7 {PL [1 dl1 2 dl2 6 dl1 2 dl2 1 dl1 2 dl2] LC7 DL} def
/LT8 {PL [2 dl1 2 dl2 2 dl1 2 dl2 2 dl1 2 dl2 2 dl1 4 dl2] LC8 DL} def
/Pnt {stroke [] 0 setdash gsave 1 setlinecap M 0 0 V stroke grestore} def
/Dia {stroke [] 0 setdash 2 copy vpt add M
  hpt neg vpt neg V hpt vpt neg V
  hpt vpt V hpt neg vpt V closepath stroke
  Pnt} def
/Pls {stroke [] 0 setdash vpt sub M 0 vpt2 V
  currentpoint stroke M
  hpt neg vpt neg R hpt2 0 V stroke
 } def
/Box {stroke [] 0 setdash 2 copy exch hpt sub exch vpt add M
  0 vpt2 neg V hpt2 0 V 0 vpt2 V
  hpt2 neg 0 V closepath stroke
  Pnt} def
/Crs {stroke [] 0 setdash exch hpt sub exch vpt add M
  hpt2 vpt2 neg V currentpoint stroke M
  hpt2 neg 0 R hpt2 vpt2 V stroke} def
/TriU {stroke [] 0 setdash 2 copy vpt 1.12 mul add M
  hpt neg vpt -1.62 mul V
  hpt 2 mul 0 V
  hpt neg vpt 1.62 mul V closepath stroke
  Pnt} def
/Star {2 copy Pls Crs} def
/BoxF {stroke [] 0 setdash exch hpt sub exch vpt add M
  0 vpt2 neg V hpt2 0 V 0 vpt2 V
  hpt2 neg 0 V closepath fill} def
/TriUF {stroke [] 0 setdash vpt 1.12 mul add M
  hpt neg vpt -1.62 mul V
  hpt 2 mul 0 V
  hpt neg vpt 1.62 mul V closepath fill} def
/TriD {stroke [] 0 setdash 2 copy vpt 1.12 mul sub M
  hpt neg vpt 1.62 mul V
  hpt 2 mul 0 V
  hpt neg vpt -1.62 mul V closepath stroke
  Pnt} def
/TriDF {stroke [] 0 setdash vpt 1.12 mul sub M
  hpt neg vpt 1.62 mul V
  hpt 2 mul 0 V
  hpt neg vpt -1.62 mul V closepath fill} def
/DiaF {stroke [] 0 setdash vpt add M
  hpt neg vpt neg V hpt vpt neg V
  hpt vpt V hpt neg vpt V closepath fill} def
/Pent {stroke [] 0 setdash 2 copy gsave
  translate 0 hpt M 4 {72 rotate 0 hpt L} repeat
  closepath stroke grestore Pnt} def
/PentF {stroke [] 0 setdash gsave
  translate 0 hpt M 4 {72 rotate 0 hpt L} repeat
  closepath fill grestore} def
/Circle {stroke [] 0 setdash 2 copy
  hpt 0 360 arc stroke Pnt} def
/CircleF {stroke [] 0 setdash hpt 0 360 arc fill} def
/C0 {BL [] 0 setdash 2 copy moveto vpt 90 450 arc} bind def
/C1 {BL [] 0 setdash 2 copy moveto
	2 copy vpt 0 90 arc closepath fill
	vpt 0 360 arc closepath} bind def
/C2 {BL [] 0 setdash 2 copy moveto
	2 copy vpt 90 180 arc closepath fill
	vpt 0 360 arc closepath} bind def
/C3 {BL [] 0 setdash 2 copy moveto
	2 copy vpt 0 180 arc closepath fill
	vpt 0 360 arc closepath} bind def
/C4 {BL [] 0 setdash 2 copy moveto
	2 copy vpt 180 270 arc closepath fill
	vpt 0 360 arc closepath} bind def
/C5 {BL [] 0 setdash 2 copy moveto
	2 copy vpt 0 90 arc
	2 copy moveto
	2 copy vpt 180 270 arc closepath fill
	vpt 0 360 arc} bind def
/C6 {BL [] 0 setdash 2 copy moveto
	2 copy vpt 90 270 arc closepath fill
	vpt 0 360 arc closepath} bind def
/C7 {BL [] 0 setdash 2 copy moveto
	2 copy vpt 0 270 arc closepath fill
	vpt 0 360 arc closepath} bind def
/C8 {BL [] 0 setdash 2 copy moveto
	2 copy vpt 270 360 arc closepath fill
	vpt 0 360 arc closepath} bind def
/C9 {BL [] 0 setdash 2 copy moveto
	2 copy vpt 270 450 arc closepath fill
	vpt 0 360 arc closepath} bind def
/C10 {BL [] 0 setdash 2 copy 2 copy moveto vpt 270 360 arc closepath fill
	2 copy moveto
	2 copy vpt 90 180 arc closepath fill
	vpt 0 360 arc closepath} bind def
/C11 {BL [] 0 setdash 2 copy moveto
	2 copy vpt 0 180 arc closepath fill
	2 copy moveto
	2 copy vpt 270 360 arc closepath fill
	vpt 0 360 arc closepath} bind def
/C12 {BL [] 0 setdash 2 copy moveto
	2 copy vpt 180 360 arc closepath fill
	vpt 0 360 arc closepath} bind def
/C13 {BL [] 0 setdash 2 copy moveto
	2 copy vpt 0 90 arc closepath fill
	2 copy moveto
	2 copy vpt 180 360 arc closepath fill
	vpt 0 360 arc closepath} bind def
/C14 {BL [] 0 setdash 2 copy moveto
	2 copy vpt 90 360 arc closepath fill
	vpt 0 360 arc} bind def
/C15 {BL [] 0 setdash 2 copy vpt 0 360 arc closepath fill
	vpt 0 360 arc closepath} bind def
/Rec {newpath 4 2 roll moveto 1 index 0 rlineto 0 exch rlineto
	neg 0 rlineto closepath} bind def
/Square {dup Rec} bind def
/Bsquare {vpt sub exch vpt sub exch vpt2 Square} bind def
/S0 {BL [] 0 setdash 2 copy moveto 0 vpt rlineto BL Bsquare} bind def
/S1 {BL [] 0 setdash 2 copy vpt Square fill Bsquare} bind def
/S2 {BL [] 0 setdash 2 copy exch vpt sub exch vpt Square fill Bsquare} bind def
/S3 {BL [] 0 setdash 2 copy exch vpt sub exch vpt2 vpt Rec fill Bsquare} bind def
/S4 {BL [] 0 setdash 2 copy exch vpt sub exch vpt sub vpt Square fill Bsquare} bind def
/S5 {BL [] 0 setdash 2 copy 2 copy vpt Square fill
	exch vpt sub exch vpt sub vpt Square fill Bsquare} bind def
/S6 {BL [] 0 setdash 2 copy exch vpt sub exch vpt sub vpt vpt2 Rec fill Bsquare} bind def
/S7 {BL [] 0 setdash 2 copy exch vpt sub exch vpt sub vpt vpt2 Rec fill
	2 copy vpt Square fill Bsquare} bind def
/S8 {BL [] 0 setdash 2 copy vpt sub vpt Square fill Bsquare} bind def
/S9 {BL [] 0 setdash 2 copy vpt sub vpt vpt2 Rec fill Bsquare} bind def
/S10 {BL [] 0 setdash 2 copy vpt sub vpt Square fill 2 copy exch vpt sub exch vpt Square fill
	Bsquare} bind def
/S11 {BL [] 0 setdash 2 copy vpt sub vpt Square fill 2 copy exch vpt sub exch vpt2 vpt Rec fill
	Bsquare} bind def
/S12 {BL [] 0 setdash 2 copy exch vpt sub exch vpt sub vpt2 vpt Rec fill Bsquare} bind def
/S13 {BL [] 0 setdash 2 copy exch vpt sub exch vpt sub vpt2 vpt Rec fill
	2 copy vpt Square fill Bsquare} bind def
/S14 {BL [] 0 setdash 2 copy exch vpt sub exch vpt sub vpt2 vpt Rec fill
	2 copy exch vpt sub exch vpt Square fill Bsquare} bind def
/S15 {BL [] 0 setdash 2 copy Bsquare fill Bsquare} bind def
/D0 {gsave translate 45 rotate 0 0 S0 stroke grestore} bind def
/D1 {gsave translate 45 rotate 0 0 S1 stroke grestore} bind def
/D2 {gsave translate 45 rotate 0 0 S2 stroke grestore} bind def
/D3 {gsave translate 45 rotate 0 0 S3 stroke grestore} bind def
/D4 {gsave translate 45 rotate 0 0 S4 stroke grestore} bind def
/D5 {gsave translate 45 rotate 0 0 S5 stroke grestore} bind def
/D6 {gsave translate 45 rotate 0 0 S6 stroke grestore} bind def
/D7 {gsave translate 45 rotate 0 0 S7 stroke grestore} bind def
/D8 {gsave translate 45 rotate 0 0 S8 stroke grestore} bind def
/D9 {gsave translate 45 rotate 0 0 S9 stroke grestore} bind def
/D10 {gsave translate 45 rotate 0 0 S10 stroke grestore} bind def
/D11 {gsave translate 45 rotate 0 0 S11 stroke grestore} bind def
/D12 {gsave translate 45 rotate 0 0 S12 stroke grestore} bind def
/D13 {gsave translate 45 rotate 0 0 S13 stroke grestore} bind def
/D14 {gsave translate 45 rotate 0 0 S14 stroke grestore} bind def
/D15 {gsave translate 45 rotate 0 0 S15 stroke grestore} bind def
/DiaE {stroke [] 0 setdash vpt add M
  hpt neg vpt neg V hpt vpt neg V
  hpt vpt V hpt neg vpt V closepath stroke} def
/BoxE {stroke [] 0 setdash exch hpt sub exch vpt add M
  0 vpt2 neg V hpt2 0 V 0 vpt2 V
  hpt2 neg 0 V closepath stroke} def
/TriUE {stroke [] 0 setdash vpt 1.12 mul add M
  hpt neg vpt -1.62 mul V
  hpt 2 mul 0 V
  hpt neg vpt 1.62 mul V closepath stroke} def
/TriDE {stroke [] 0 setdash vpt 1.12 mul sub M
  hpt neg vpt 1.62 mul V
  hpt 2 mul 0 V
  hpt neg vpt -1.62 mul V closepath stroke} def
/PentE {stroke [] 0 setdash gsave
  translate 0 hpt M 4 {72 rotate 0 hpt L} repeat
  closepath stroke grestore} def
/CircE {stroke [] 0 setdash 
  hpt 0 360 arc stroke} def
/Opaque {gsave closepath 1 setgray fill grestore 0 setgray closepath} def
/DiaW {stroke [] 0 setdash vpt add M
  hpt neg vpt neg V hpt vpt neg V
  hpt vpt V hpt neg vpt V Opaque stroke} def
/BoxW {stroke [] 0 setdash exch hpt sub exch vpt add M
  0 vpt2 neg V hpt2 0 V 0 vpt2 V
  hpt2 neg 0 V Opaque stroke} def
/TriUW {stroke [] 0 setdash vpt 1.12 mul add M
  hpt neg vpt -1.62 mul V
  hpt 2 mul 0 V
  hpt neg vpt 1.62 mul V Opaque stroke} def
/TriDW {stroke [] 0 setdash vpt 1.12 mul sub M
  hpt neg vpt 1.62 mul V
  hpt 2 mul 0 V
  hpt neg vpt -1.62 mul V Opaque stroke} def
/PentW {stroke [] 0 setdash gsave
  translate 0 hpt M 4 {72 rotate 0 hpt L} repeat
  Opaque stroke grestore} def
/CircW {stroke [] 0 setdash 
  hpt 0 360 arc Opaque stroke} def
/BoxFill {gsave Rec 1 setgray fill grestore} def
/Density {
  /Fillden exch def
  currentrgbcolor
  /ColB exch def /ColG exch def /ColR exch def
  /ColR ColR Fillden mul Fillden sub 1 add def
  /ColG ColG Fillden mul Fillden sub 1 add def
  /ColB ColB Fillden mul Fillden sub 1 add def
  ColR ColG ColB setrgbcolor} def
/BoxColFill {gsave Rec PolyFill} def
/PolyFill {gsave Density fill grestore grestore} def
/h {rlineto rlineto rlineto gsave closepath fill grestore} bind def
%
% PostScript Level 1 Pattern Fill routine for rectangles
% Usage: x y w h s a XX PatternFill
%	x,y = lower left corner of box to be filled
%	w,h = width and height of box
%	  a = angle in degrees between lines and x-axis
%	 XX = 0/1 for no/yes cross-hatch
%
/PatternFill {gsave /PFa [ 9 2 roll ] def
  PFa 0 get PFa 2 get 2 div add PFa 1 get PFa 3 get 2 div add translate
  PFa 2 get -2 div PFa 3 get -2 div PFa 2 get PFa 3 get Rec
  gsave 1 setgray fill grestore clip
  currentlinewidth 0.5 mul setlinewidth
  /PFs PFa 2 get dup mul PFa 3 get dup mul add sqrt def
  0 0 M PFa 5 get rotate PFs -2 div dup translate
  0 1 PFs PFa 4 get div 1 add floor cvi
	{PFa 4 get mul 0 M 0 PFs V} for
  0 PFa 6 get ne {
	0 1 PFs PFa 4 get div 1 add floor cvi
	{PFa 4 get mul 0 2 1 roll M PFs 0 V} for
 } if
  stroke grestore} def
%
/languagelevel where
 {pop languagelevel} {1} ifelse
 2 lt
	{/InterpretLevel1 true def}
	{/InterpretLevel1 Level1 def}
 ifelse
%
% PostScript level 2 pattern fill definitions
%
/Level2PatternFill {
/Tile8x8 {/PaintType 2 /PatternType 1 /TilingType 1 /BBox [0 0 8 8] /XStep 8 /YStep 8}
	bind def
/KeepColor {currentrgbcolor [/Pattern /DeviceRGB] setcolorspace} bind def
<< Tile8x8
 /PaintProc {0.5 setlinewidth pop 0 0 M 8 8 L 0 8 M 8 0 L stroke} 
>> matrix makepattern
/Pat1 exch def
<< Tile8x8
 /PaintProc {0.5 setlinewidth pop 0 0 M 8 8 L 0 8 M 8 0 L stroke
	0 4 M 4 8 L 8 4 L 4 0 L 0 4 L stroke}
>> matrix makepattern
/Pat2 exch def
<< Tile8x8
 /PaintProc {0.5 setlinewidth pop 0 0 M 0 8 L
	8 8 L 8 0 L 0 0 L fill}
>> matrix makepattern
/Pat3 exch def
<< Tile8x8
 /PaintProc {0.5 setlinewidth pop -4 8 M 8 -4 L
	0 12 M 12 0 L stroke}
>> matrix makepattern
/Pat4 exch def
<< Tile8x8
 /PaintProc {0.5 setlinewidth pop -4 0 M 8 12 L
	0 -4 M 12 8 L stroke}
>> matrix makepattern
/Pat5 exch def
<< Tile8x8
 /PaintProc {0.5 setlinewidth pop -2 8 M 4 -4 L
	0 12 M 8 -4 L 4 12 M 10 0 L stroke}
>> matrix makepattern
/Pat6 exch def
<< Tile8x8
 /PaintProc {0.5 setlinewidth pop -2 0 M 4 12 L
	0 -4 M 8 12 L 4 -4 M 10 8 L stroke}
>> matrix makepattern
/Pat7 exch def
<< Tile8x8
 /PaintProc {0.5 setlinewidth pop 8 -2 M -4 4 L
	12 0 M -4 8 L 12 4 M 0 10 L stroke}
>> matrix makepattern
/Pat8 exch def
<< Tile8x8
 /PaintProc {0.5 setlinewidth pop 0 -2 M 12 4 L
	-4 0 M 12 8 L -4 4 M 8 10 L stroke}
>> matrix makepattern
/Pat9 exch def
/Pattern1 {PatternBgnd KeepColor Pat1 setpattern} bind def
/Pattern2 {PatternBgnd KeepColor Pat2 setpattern} bind def
/Pattern3 {PatternBgnd KeepColor Pat3 setpattern} bind def
/Pattern4 {PatternBgnd KeepColor Landscape {Pat5} {Pat4} ifelse setpattern} bind def
/Pattern5 {PatternBgnd KeepColor Landscape {Pat4} {Pat5} ifelse setpattern} bind def
/Pattern6 {PatternBgnd KeepColor Landscape {Pat9} {Pat6} ifelse setpattern} bind def
/Pattern7 {PatternBgnd KeepColor Landscape {Pat8} {Pat7} ifelse setpattern} bind def
} def
%
%
%End of PostScript Level 2 code
%
/PatternBgnd {
  TransparentPatterns {} {gsave 1 setgray fill grestore} ifelse
} def
%
% Substitute for Level 2 pattern fill codes with
% grayscale if Level 2 support is not selected.
%
/Level1PatternFill {
/Pattern1 {0.250 Density} bind def
/Pattern2 {0.500 Density} bind def
/Pattern3 {0.750 Density} bind def
/Pattern4 {0.125 Density} bind def
/Pattern5 {0.375 Density} bind def
/Pattern6 {0.625 Density} bind def
/Pattern7 {0.875 Density} bind def
} def
%
% Now test for support of Level 2 code
%
Level1 {Level1PatternFill} {Level2PatternFill} ifelse
%
/Symbol-Oblique /Symbol findfont [1 0 .167 1 0 0] makefont
dup length dict begin {1 index /FID eq {pop pop} {def} ifelse} forall
currentdict end definefont pop
end
%%EndProlog
%%Page: 1 1
gnudict begin
gsave
50 50 translate
0.100 0.100 scale
90 rotate
0 -5040 translate
0 setgray
newpath
(Helvetica) findfont 140 scalefont setfont
1.000 UL
LTb
1.000 UL
LTa
854 783 M
9016 0 V
stroke
LTb
854 783 M
63 0 V
8953 0 R
-63 0 V
770 783 M
( 0) Rshow
1.000 UL
LTb
1.000 UL
LTa
854 1265 M
9016 0 V
stroke
LTb
854 1265 M
63 0 V
8953 0 R
-63 0 V
-9037 0 R
( 0.5) Rshow
1.000 UL
LTb
1.000 UL
LTa
854 1747 M
9016 0 V
stroke
LTb
854 1747 M
63 0 V
8953 0 R
-63 0 V
-9037 0 R
( 1) Rshow
1.000 UL
LTb
1.000 UL
LTa
854 2228 M
9016 0 V
stroke
LTb
854 2228 M
63 0 V
8953 0 R
-63 0 V
-9037 0 R
( 1.5) Rshow
1.000 UL
LTb
1.000 UL
LTa
854 2710 M
9016 0 V
stroke
LTb
854 2710 M
63 0 V
8953 0 R
-63 0 V
-9037 0 R
( 2) Rshow
1.000 UL
LTb
1.000 UL
LTa
854 3192 M
9016 0 V
stroke
LTb
854 3192 M
63 0 V
8953 0 R
-63 0 V
-9037 0 R
( 2.5) Rshow
1.000 UL
LTb
1.000 UL
LTa
1548 783 M
0 2409 V
stroke
LTb
1548 783 M
0 63 V
0 2346 R
0 -63 V
0 -2430 R
currentpoint gsave translate -45 rotate 0 0 M
(matmult) Lshow
grestore
1.000 UL
LTb
1.000 UL
LTa
2241 783 M
0 2409 V
stroke
LTb
2241 783 M
0 63 V
0 2346 R
0 -63 V
0 -2430 R
currentpoint gsave translate -45 rotate 0 0 M
(cnt) Lshow
grestore
1.000 UL
LTb
1.000 UL
LTa
2935 783 M
0 2409 V
stroke
LTb
2935 783 M
0 63 V
0 2346 R
0 -63 V
0 -2430 R
currentpoint gsave translate -45 rotate 0 0 M
(fir) Lshow
grestore
1.000 UL
LTb
1.000 UL
LTa
3628 783 M
0 2409 V
stroke
LTb
3628 783 M
0 63 V
0 2346 R
0 -63 V
0 -2430 R
currentpoint gsave translate -45 rotate 0 0 M
(fdct) Lshow
grestore
1.000 UL
LTb
1.000 UL
LTa
4322 783 M
0 2409 V
stroke
LTb
4322 783 M
0 63 V
0 2346 R
0 -63 V
0 -2430 R
currentpoint gsave translate -45 rotate 0 0 M
(expint) Lshow
grestore
1.000 UL
LTb
1.000 UL
LTa
5015 783 M
0 2409 V
stroke
LTb
5015 783 M
0 63 V
0 2346 R
0 -63 V
0 -2430 R
currentpoint gsave translate -45 rotate 0 0 M
(nsichneu) Lshow
grestore
1.000 UL
LTb
1.000 UL
LTa
5709 783 M
0 2409 V
stroke
LTb
5709 783 M
0 63 V
0 2346 R
0 -63 V
0 -2430 R
currentpoint gsave translate -45 rotate 0 0 M
(edn) Lshow
grestore
1.000 UL
LTb
1.000 UL
LTa
6402 783 M
0 2409 V
stroke
LTb
6402 783 M
0 63 V
0 2346 R
0 -63 V
0 -2430 R
currentpoint gsave translate -45 rotate 0 0 M
(ludcmp) Lshow
grestore
1.000 UL
LTb
1.000 UL
LTa
7096 783 M
0 2409 V
stroke
LTb
7096 783 M
0 63 V
0 2346 R
0 -63 V
0 -2430 R
currentpoint gsave translate -45 rotate 0 0 M
(ns) Lshow
grestore
1.000 UL
LTb
1.000 UL
LTa
7789 783 M
0 2409 V
stroke
LTb
7789 783 M
0 63 V
0 2346 R
0 -63 V
0 -2430 R
currentpoint gsave translate -45 rotate 0 0 M
(bsort100) Lshow
grestore
1.000 UL
LTb
1.000 UL
LTa
8483 783 M
0 2409 V
stroke
LTb
8483 783 M
0 63 V
0 2346 R
0 -63 V
0 -2430 R
currentpoint gsave translate -45 rotate 0 0 M
(adpcm) Lshow
grestore
1.000 UL
LTb
1.000 UL
LTa
9176 783 M
0 2409 V
stroke
LTb
9176 783 M
0 63 V
0 2346 R
0 -63 V
0 -2430 R
currentpoint gsave translate -45 rotate 0 0 M
(st) Lshow
grestore
1.000 UL
LTb
1.000 UL
LTb
854 3192 N
854 783 L
9016 0 V
0 2409 V
-9016 0 V
Z stroke
LCb setrgbcolor
280 1987 M
currentpoint gsave translate 90 rotate 0 0 M
(WCET overestimation ratio \(WCET/SIM\)) Cshow
grestore
LTb
LCb setrgbcolor
5362 98 M
(Benchmarks) Cshow
LTb
5362 3402 M
(WCET overestimation w.r.t speculation and with only L1 cache) Cshow
1.000 UP
1.000 UL
LTb
1.000 UL
LTb
4795 3899 M
(perfect predictor + perfect L1 cache) Rshow
0.330 4879 3864 399 70 BoxColFill
LTb
4879 3864 N
399 0 V
0 70 V
-399 0 V
0 -70 V
Z stroke
0.330 1380 783 105 965 BoxColFill
LTb
1380 783 N
0 964 V
104 0 V
0 -964 V
-104 0 V
Z stroke
0.330 2073 783 106 985 BoxColFill
LTb
2073 783 N
0 984 V
105 0 V
0 -984 V
-105 0 V
Z stroke
0.330 2767 783 105 1062 BoxColFill
LTb
2767 783 N
0 1061 V
104 0 V
0 -1061 V
-104 0 V
Z stroke
0.330 3461 783 105 966 BoxColFill
LTb
3461 783 N
0 965 V
104 0 V
0 -965 V
-104 0 V
Z stroke
0.330 4154 783 105 1300 BoxColFill
LTb
4154 783 N
0 1299 V
104 0 V
0 -1299 V
-104 0 V
Z stroke
0.330 4848 783 105 2166 BoxColFill
LTb
4848 783 N
0 2165 V
104 0 V
0 -2165 V
-104 0 V
Z stroke
0.330 5541 783 105 986 BoxColFill
LTb
5541 783 N
0 985 V
104 0 V
0 -985 V
-104 0 V
Z stroke
0.330 6235 783 105 1054 BoxColFill
LTb
6235 783 N
0 1053 V
104 0 V
0 -1053 V
-104 0 V
Z stroke
0.330 6928 783 105 1202 BoxColFill
LTb
6928 783 N
0 1201 V
104 0 V
0 -1201 V
-104 0 V
Z stroke
0.330 7622 783 105 1148 BoxColFill
LTb
7622 783 N
0 1147 V
104 0 V
0 -1147 V
-104 0 V
Z stroke
0.330 8315 783 105 1212 BoxColFill
LTb
8315 783 N
0 1211 V
104 0 V
0 -1211 V
-104 0 V
Z stroke
0.330 9009 783 105 1280 BoxColFill
LTb
9009 783 N
0 1279 V
104 0 V
0 -1279 V
-104 0 V
Z stroke
1.000 UL
LTb
4795 3759 M
(2 level predictor + perfect L1 cache) Rshow
4879 3724 399 70 80 -45 1 PatternFill
LTb
4879 3724 N
399 0 V
0 70 V
-399 0 V
0 -70 V
Z stroke
1496 783 105 967 80 -45 1 PatternFill
LTb
1496 783 N
0 966 V
104 0 V
0 -966 V
-104 0 V
Z stroke
2189 783 105 1038 80 -45 1 PatternFill
LTb
2189 783 N
0 1037 V
104 0 V
0 -1037 V
-104 0 V
Z stroke
2883 783 105 1084 80 -45 1 PatternFill
LTb
2883 783 N
0 1083 V
104 0 V
0 -1083 V
-104 0 V
Z stroke
3576 783 105 966 80 -45 1 PatternFill
LTb
3576 783 N
0 965 V
104 0 V
0 -965 V
-104 0 V
Z stroke
4270 783 105 1520 80 -45 1 PatternFill
LTb
4270 783 N
0 1519 V
104 0 V
0 -1519 V
-104 0 V
Z stroke
4963 783 105 2280 80 -45 1 PatternFill
LTb
4963 783 N
0 2279 V
104 0 V
0 -2279 V
-104 0 V
Z stroke
5657 783 105 988 80 -45 1 PatternFill
LTb
5657 783 N
0 987 V
104 0 V
0 -987 V
-104 0 V
Z stroke
6350 783 105 1072 80 -45 1 PatternFill
LTb
6350 783 N
0 1071 V
104 0 V
0 -1071 V
-104 0 V
Z stroke
7044 783 105 1219 80 -45 1 PatternFill
LTb
7044 783 N
0 1218 V
104 0 V
0 -1218 V
-104 0 V
Z stroke
7737 783 105 1274 80 -45 1 PatternFill
LTb
7737 783 N
0 1273 V
104 0 V
0 -1273 V
-104 0 V
Z stroke
8431 783 105 1207 80 -45 1 PatternFill
LTb
8431 783 N
0 1206 V
104 0 V
0 -1206 V
-104 0 V
Z stroke
9124 783 105 1279 80 -45 1 PatternFill
LTb
9124 783 N
0 1278 V
104 0 V
0 -1278 V
-104 0 V
Z stroke
1.000 UL
LTb
8386 3899 M
(perfect predictor + only L1 cache) Rshow
1.000 8470 3864 399 70 BoxColFill
LTb
8470 3864 N
399 0 V
0 70 V
-399 0 V
0 -70 V
Z stroke
1.000 1611 783 105 965 BoxColFill
LTb
1611 783 N
0 964 V
104 0 V
0 -964 V
-104 0 V
Z stroke
1.000 2305 783 105 987 BoxColFill
LTb
2305 783 N
0 986 V
104 0 V
0 -986 V
-104 0 V
Z stroke
1.000 2998 783 105 1062 BoxColFill
LTb
2998 783 N
0 1061 V
104 0 V
0 -1061 V
-104 0 V
Z stroke
1.000 3692 783 105 967 BoxColFill
LTb
3692 783 N
0 966 V
104 0 V
0 -966 V
-104 0 V
Z stroke
1.000 4385 783 105 1144 BoxColFill
LTb
4385 783 N
0 1143 V
104 0 V
0 -1143 V
-104 0 V
Z stroke
1.000 5079 783 105 1922 BoxColFill
LTb
5079 783 N
0 1921 V
104 0 V
0 -1921 V
-104 0 V
Z stroke
1.000 5772 783 105 986 BoxColFill
LTb
5772 783 N
0 985 V
104 0 V
0 -985 V
-104 0 V
Z stroke
1.000 6466 783 105 1068 BoxColFill
LTb
6466 783 N
0 1067 V
104 0 V
0 -1067 V
-104 0 V
Z stroke
1.000 7159 783 105 1199 BoxColFill
LTb
7159 783 N
0 1198 V
104 0 V
0 -1198 V
-104 0 V
Z stroke
1.000 7853 783 105 1144 BoxColFill
LTb
7853 783 N
0 1143 V
104 0 V
0 -1143 V
-104 0 V
Z stroke
1.000 8546 783 106 1171 BoxColFill
LTb
8546 783 N
0 1170 V
105 0 V
0 -1170 V
-105 0 V
Z stroke
1.000 9240 783 105 1276 BoxColFill
LTb
9240 783 N
0 1275 V
104 0 V
0 -1275 V
-104 0 V
Z stroke
1.000 UL
LTb
8386 3759 M
(2 level predictor +  only L1 cache) Rshow
8470 3724 399 70 80 45 0 PatternFill
LTb
8470 3724 N
399 0 V
0 70 V
-399 0 V
0 -70 V
Z stroke
1727 783 105 967 80 45 0 PatternFill
LTb
1727 783 N
0 966 V
104 0 V
0 -966 V
-104 0 V
Z stroke
2420 783 105 1039 80 45 0 PatternFill
LTb
2420 783 N
0 1038 V
104 0 V
0 -1038 V
-104 0 V
Z stroke
3114 783 105 1137 80 45 0 PatternFill
LTb
3114 783 N
0 1136 V
104 0 V
0 -1136 V
-104 0 V
Z stroke
3807 783 105 967 80 45 0 PatternFill
LTb
3807 783 N
0 966 V
104 0 V
0 -966 V
-104 0 V
Z stroke
4501 783 105 1207 80 45 0 PatternFill
LTb
4501 783 N
0 1206 V
104 0 V
0 -1206 V
-104 0 V
Z stroke
5194 783 105 1988 80 45 0 PatternFill
LTb
5194 783 N
0 1987 V
104 0 V
0 -1987 V
-104 0 V
Z stroke
5888 783 105 999 80 45 0 PatternFill
LTb
5888 783 N
0 998 V
104 0 V
0 -998 V
-104 0 V
Z stroke
6581 783 106 1138 80 45 0 PatternFill
LTb
6581 783 N
0 1137 V
105 0 V
0 -1137 V
-105 0 V
Z stroke
7275 783 105 1229 80 45 0 PatternFill
LTb
7275 783 N
0 1228 V
104 0 V
0 -1228 V
-104 0 V
Z stroke
7969 783 105 1103 80 45 0 PatternFill
LTb
7969 783 N
0 1102 V
104 0 V
0 -1102 V
-104 0 V
Z stroke
8662 783 105 1138 80 45 0 PatternFill
LTb
8662 783 N
0 1137 V
104 0 V
0 -1137 V
-104 0 V
Z stroke
9356 783 105 1276 80 45 0 PatternFill
LTb
9356 783 N
0 1275 V
104 0 V
0 -1275 V
-104 0 V
Z stroke
1.000 UL
LTb
854 3192 N
854 783 L
9016 0 V
0 2409 V
-9016 0 V
Z stroke
1.000 UP
1.000 UL
LTb
stroke
grestore
end
showpage
%%Trailer
%%DocumentFonts: Helvetica
%%Pages: 1
