%!PS-Adobe-2.0
%%Title: task_config/exp_spec_FIFO/overestimation.eps
%%Creator: gnuplot 4.2 patchlevel 6 
%%CreationDate: Wed Nov 21 21:15:14 2012
%%DocumentFonts: (atend)
%%BoundingBox: 150 50 554 1058
%%Orientation: Landscape
%%Pages: (atend)
%%EndComments
%%BeginProlog
/gnudict 256 dict def
gnudict begin
%
% The following 6 true/false flags may be edited by hand if required
% The unit line width may also be changed
%
/Color true def
/Blacktext false def
/Solid false def
/Dashlength 1 def
/Landscape true def
/Level1 false def
/Rounded false def
/TransparentPatterns false def
/gnulinewidth 5.000 def
/userlinewidth gnulinewidth def
%
/vshift -46 def
/dl1 {
  10.0 Dashlength mul mul
  Rounded { currentlinewidth 0.75 mul sub dup 0 le { pop 0.01 } if } if
} def
/dl2 {
  10.0 Dashlength mul mul
  Rounded { currentlinewidth 0.75 mul add } if
} def
/hpt_ 31.5 def
/vpt_ 31.5 def
/hpt hpt_ def
/vpt vpt_ def
Level1 {} {
/SDict 10 dict def
systemdict /pdfmark known not {
  userdict /pdfmark systemdict /cleartomark get put
} if
SDict begin [
  /Title (task_config/exp_spec_FIFO/overestimation.eps)
  /Subject (gnuplot plot)
  /Creator (gnuplot 4.2 patchlevel 6 )
  /Author (Sudipta Chattopadhyay,,,)
%  /Producer (gnuplot)
%  /Keywords ()
  /CreationDate (Wed Nov 21 21:15:14 2012)
  /DOCINFO pdfmark
end
} ifelse
%
% Gnuplot Prolog Version 4.2 (August 2006)
%
/M {moveto} bind def
/L {lineto} bind def
/R {rmoveto} bind def
/V {rlineto} bind def
/N {newpath moveto} bind def
/Z {closepath} bind def
/C {setrgbcolor} bind def
/f {rlineto fill} bind def
/vpt2 vpt 2 mul def
/hpt2 hpt 2 mul def
/Lshow {currentpoint stroke M 0 vshift R 
	Blacktext {gsave 0 setgray show grestore} {show} ifelse} def
/Rshow {currentpoint stroke M dup stringwidth pop neg vshift R
	Blacktext {gsave 0 setgray show grestore} {show} ifelse} def
/Cshow {currentpoint stroke M dup stringwidth pop -2 div vshift R 
	Blacktext {gsave 0 setgray show grestore} {show} ifelse} def
/UP {dup vpt_ mul /vpt exch def hpt_ mul /hpt exch def
  /hpt2 hpt 2 mul def /vpt2 vpt 2 mul def} def
/DL {Color {setrgbcolor Solid {pop []} if 0 setdash}
 {pop pop pop 0 setgray Solid {pop []} if 0 setdash} ifelse} def
/BL {stroke userlinewidth 2 mul setlinewidth
	Rounded {1 setlinejoin 1 setlinecap} if} def
/AL {stroke userlinewidth 2 div setlinewidth
	Rounded {1 setlinejoin 1 setlinecap} if} def
/UL {dup gnulinewidth mul /userlinewidth exch def
	dup 1 lt {pop 1} if 10 mul /udl exch def} def
/PL {stroke userlinewidth setlinewidth
	Rounded {1 setlinejoin 1 setlinecap} if} def
% Default Line colors
/LCw {1 1 1} def
/LCb {0 0 0} def
/LCa {0 0 0} def
/LC0 {1 0 0} def
/LC1 {0 1 0} def
/LC2 {0 0 1} def
/LC3 {1 0 1} def
/LC4 {0 1 1} def
/LC5 {1 1 0} def
/LC6 {0 0 0} def
/LC7 {1 0.3 0} def
/LC8 {0.5 0.5 0.5} def
% Default Line Types
/LTw {PL [] 1 setgray} def
/LTb {BL [] LCb DL} def
/LTa {AL [1 udl mul 2 udl mul] 0 setdash LCa setrgbcolor} def
/LT0 {PL [] LC0 DL} def
/LT1 {PL [4 dl1 2 dl2] LC1 DL} def
/LT2 {PL [2 dl1 3 dl2] LC2 DL} def
/LT3 {PL [1 dl1 1.5 dl2] LC3 DL} def
/LT4 {PL [6 dl1 2 dl2 1 dl1 2 dl2] LC4 DL} def
/LT5 {PL [3 dl1 3 dl2 1 dl1 3 dl2] LC5 DL} def
/LT6 {PL [2 dl1 2 dl2 2 dl1 6 dl2] LC6 DL} def
/LT7 {PL [1 dl1 2 dl2 6 dl1 2 dl2 1 dl1 2 dl2] LC7 DL} def
/LT8 {PL [2 dl1 2 dl2 2 dl1 2 dl2 2 dl1 2 dl2 2 dl1 4 dl2] LC8 DL} def
/Pnt {stroke [] 0 setdash gsave 1 setlinecap M 0 0 V stroke grestore} def
/Dia {stroke [] 0 setdash 2 copy vpt add M
  hpt neg vpt neg V hpt vpt neg V
  hpt vpt V hpt neg vpt V closepath stroke
  Pnt} def
/Pls {stroke [] 0 setdash vpt sub M 0 vpt2 V
  currentpoint stroke M
  hpt neg vpt neg R hpt2 0 V stroke
 } def
/Box {stroke [] 0 setdash 2 copy exch hpt sub exch vpt add M
  0 vpt2 neg V hpt2 0 V 0 vpt2 V
  hpt2 neg 0 V closepath stroke
  Pnt} def
/Crs {stroke [] 0 setdash exch hpt sub exch vpt add M
  hpt2 vpt2 neg V currentpoint stroke M
  hpt2 neg 0 R hpt2 vpt2 V stroke} def
/TriU {stroke [] 0 setdash 2 copy vpt 1.12 mul add M
  hpt neg vpt -1.62 mul V
  hpt 2 mul 0 V
  hpt neg vpt 1.62 mul V closepath stroke
  Pnt} def
/Star {2 copy Pls Crs} def
/BoxF {stroke [] 0 setdash exch hpt sub exch vpt add M
  0 vpt2 neg V hpt2 0 V 0 vpt2 V
  hpt2 neg 0 V closepath fill} def
/TriUF {stroke [] 0 setdash vpt 1.12 mul add M
  hpt neg vpt -1.62 mul V
  hpt 2 mul 0 V
  hpt neg vpt 1.62 mul V closepath fill} def
/TriD {stroke [] 0 setdash 2 copy vpt 1.12 mul sub M
  hpt neg vpt 1.62 mul V
  hpt 2 mul 0 V
  hpt neg vpt -1.62 mul V closepath stroke
  Pnt} def
/TriDF {stroke [] 0 setdash vpt 1.12 mul sub M
  hpt neg vpt 1.62 mul V
  hpt 2 mul 0 V
  hpt neg vpt -1.62 mul V closepath fill} def
/DiaF {stroke [] 0 setdash vpt add M
  hpt neg vpt neg V hpt vpt neg V
  hpt vpt V hpt neg vpt V closepath fill} def
/Pent {stroke [] 0 setdash 2 copy gsave
  translate 0 hpt M 4 {72 rotate 0 hpt L} repeat
  closepath stroke grestore Pnt} def
/PentF {stroke [] 0 setdash gsave
  translate 0 hpt M 4 {72 rotate 0 hpt L} repeat
  closepath fill grestore} def
/Circle {stroke [] 0 setdash 2 copy
  hpt 0 360 arc stroke Pnt} def
/CircleF {stroke [] 0 setdash hpt 0 360 arc fill} def
/C0 {BL [] 0 setdash 2 copy moveto vpt 90 450 arc} bind def
/C1 {BL [] 0 setdash 2 copy moveto
	2 copy vpt 0 90 arc closepath fill
	vpt 0 360 arc closepath} bind def
/C2 {BL [] 0 setdash 2 copy moveto
	2 copy vpt 90 180 arc closepath fill
	vpt 0 360 arc closepath} bind def
/C3 {BL [] 0 setdash 2 copy moveto
	2 copy vpt 0 180 arc closepath fill
	vpt 0 360 arc closepath} bind def
/C4 {BL [] 0 setdash 2 copy moveto
	2 copy vpt 180 270 arc closepath fill
	vpt 0 360 arc closepath} bind def
/C5 {BL [] 0 setdash 2 copy moveto
	2 copy vpt 0 90 arc
	2 copy moveto
	2 copy vpt 180 270 arc closepath fill
	vpt 0 360 arc} bind def
/C6 {BL [] 0 setdash 2 copy moveto
	2 copy vpt 90 270 arc closepath fill
	vpt 0 360 arc closepath} bind def
/C7 {BL [] 0 setdash 2 copy moveto
	2 copy vpt 0 270 arc closepath fill
	vpt 0 360 arc closepath} bind def
/C8 {BL [] 0 setdash 2 copy moveto
	2 copy vpt 270 360 arc closepath fill
	vpt 0 360 arc closepath} bind def
/C9 {BL [] 0 setdash 2 copy moveto
	2 copy vpt 270 450 arc closepath fill
	vpt 0 360 arc closepath} bind def
/C10 {BL [] 0 setdash 2 copy 2 copy moveto vpt 270 360 arc closepath fill
	2 copy moveto
	2 copy vpt 90 180 arc closepath fill
	vpt 0 360 arc closepath} bind def
/C11 {BL [] 0 setdash 2 copy moveto
	2 copy vpt 0 180 arc closepath fill
	2 copy moveto
	2 copy vpt 270 360 arc closepath fill
	vpt 0 360 arc closepath} bind def
/C12 {BL [] 0 setdash 2 copy moveto
	2 copy vpt 180 360 arc closepath fill
	vpt 0 360 arc closepath} bind def
/C13 {BL [] 0 setdash 2 copy moveto
	2 copy vpt 0 90 arc closepath fill
	2 copy moveto
	2 copy vpt 180 360 arc closepath fill
	vpt 0 360 arc closepath} bind def
/C14 {BL [] 0 setdash 2 copy moveto
	2 copy vpt 90 360 arc closepath fill
	vpt 0 360 arc} bind def
/C15 {BL [] 0 setdash 2 copy vpt 0 360 arc closepath fill
	vpt 0 360 arc closepath} bind def
/Rec {newpath 4 2 roll moveto 1 index 0 rlineto 0 exch rlineto
	neg 0 rlineto closepath} bind def
/Square {dup Rec} bind def
/Bsquare {vpt sub exch vpt sub exch vpt2 Square} bind def
/S0 {BL [] 0 setdash 2 copy moveto 0 vpt rlineto BL Bsquare} bind def
/S1 {BL [] 0 setdash 2 copy vpt Square fill Bsquare} bind def
/S2 {BL [] 0 setdash 2 copy exch vpt sub exch vpt Square fill Bsquare} bind def
/S3 {BL [] 0 setdash 2 copy exch vpt sub exch vpt2 vpt Rec fill Bsquare} bind def
/S4 {BL [] 0 setdash 2 copy exch vpt sub exch vpt sub vpt Square fill Bsquare} bind def
/S5 {BL [] 0 setdash 2 copy 2 copy vpt Square fill
	exch vpt sub exch vpt sub vpt Square fill Bsquare} bind def
/S6 {BL [] 0 setdash 2 copy exch vpt sub exch vpt sub vpt vpt2 Rec fill Bsquare} bind def
/S7 {BL [] 0 setdash 2 copy exch vpt sub exch vpt sub vpt vpt2 Rec fill
	2 copy vpt Square fill Bsquare} bind def
/S8 {BL [] 0 setdash 2 copy vpt sub vpt Square fill Bsquare} bind def
/S9 {BL [] 0 setdash 2 copy vpt sub vpt vpt2 Rec fill Bsquare} bind def
/S10 {BL [] 0 setdash 2 copy vpt sub vpt Square fill 2 copy exch vpt sub exch vpt Square fill
	Bsquare} bind def
/S11 {BL [] 0 setdash 2 copy vpt sub vpt Square fill 2 copy exch vpt sub exch vpt2 vpt Rec fill
	Bsquare} bind def
/S12 {BL [] 0 setdash 2 copy exch vpt sub exch vpt sub vpt2 vpt Rec fill Bsquare} bind def
/S13 {BL [] 0 setdash 2 copy exch vpt sub exch vpt sub vpt2 vpt Rec fill
	2 copy vpt Square fill Bsquare} bind def
/S14 {BL [] 0 setdash 2 copy exch vpt sub exch vpt sub vpt2 vpt Rec fill
	2 copy exch vpt sub exch vpt Square fill Bsquare} bind def
/S15 {BL [] 0 setdash 2 copy Bsquare fill Bsquare} bind def
/D0 {gsave translate 45 rotate 0 0 S0 stroke grestore} bind def
/D1 {gsave translate 45 rotate 0 0 S1 stroke grestore} bind def
/D2 {gsave translate 45 rotate 0 0 S2 stroke grestore} bind def
/D3 {gsave translate 45 rotate 0 0 S3 stroke grestore} bind def
/D4 {gsave translate 45 rotate 0 0 S4 stroke grestore} bind def
/D5 {gsave translate 45 rotate 0 0 S5 stroke grestore} bind def
/D6 {gsave translate 45 rotate 0 0 S6 stroke grestore} bind def
/D7 {gsave translate 45 rotate 0 0 S7 stroke grestore} bind def
/D8 {gsave translate 45 rotate 0 0 S8 stroke grestore} bind def
/D9 {gsave translate 45 rotate 0 0 S9 stroke grestore} bind def
/D10 {gsave translate 45 rotate 0 0 S10 stroke grestore} bind def
/D11 {gsave translate 45 rotate 0 0 S11 stroke grestore} bind def
/D12 {gsave translate 45 rotate 0 0 S12 stroke grestore} bind def
/D13 {gsave translate 45 rotate 0 0 S13 stroke grestore} bind def
/D14 {gsave translate 45 rotate 0 0 S14 stroke grestore} bind def
/D15 {gsave translate 45 rotate 0 0 S15 stroke grestore} bind def
/DiaE {stroke [] 0 setdash vpt add M
  hpt neg vpt neg V hpt vpt neg V
  hpt vpt V hpt neg vpt V closepath stroke} def
/BoxE {stroke [] 0 setdash exch hpt sub exch vpt add M
  0 vpt2 neg V hpt2 0 V 0 vpt2 V
  hpt2 neg 0 V closepath stroke} def
/TriUE {stroke [] 0 setdash vpt 1.12 mul add M
  hpt neg vpt -1.62 mul V
  hpt 2 mul 0 V
  hpt neg vpt 1.62 mul V closepath stroke} def
/TriDE {stroke [] 0 setdash vpt 1.12 mul sub M
  hpt neg vpt 1.62 mul V
  hpt 2 mul 0 V
  hpt neg vpt -1.62 mul V closepath stroke} def
/PentE {stroke [] 0 setdash gsave
  translate 0 hpt M 4 {72 rotate 0 hpt L} repeat
  closepath stroke grestore} def
/CircE {stroke [] 0 setdash 
  hpt 0 360 arc stroke} def
/Opaque {gsave closepath 1 setgray fill grestore 0 setgray closepath} def
/DiaW {stroke [] 0 setdash vpt add M
  hpt neg vpt neg V hpt vpt neg V
  hpt vpt V hpt neg vpt V Opaque stroke} def
/BoxW {stroke [] 0 setdash exch hpt sub exch vpt add M
  0 vpt2 neg V hpt2 0 V 0 vpt2 V
  hpt2 neg 0 V Opaque stroke} def
/TriUW {stroke [] 0 setdash vpt 1.12 mul add M
  hpt neg vpt -1.62 mul V
  hpt 2 mul 0 V
  hpt neg vpt 1.62 mul V Opaque stroke} def
/TriDW {stroke [] 0 setdash vpt 1.12 mul sub M
  hpt neg vpt 1.62 mul V
  hpt 2 mul 0 V
  hpt neg vpt -1.62 mul V Opaque stroke} def
/PentW {stroke [] 0 setdash gsave
  translate 0 hpt M 4 {72 rotate 0 hpt L} repeat
  Opaque stroke grestore} def
/CircW {stroke [] 0 setdash 
  hpt 0 360 arc Opaque stroke} def
/BoxFill {gsave Rec 1 setgray fill grestore} def
/Density {
  /Fillden exch def
  currentrgbcolor
  /ColB exch def /ColG exch def /ColR exch def
  /ColR ColR Fillden mul Fillden sub 1 add def
  /ColG ColG Fillden mul Fillden sub 1 add def
  /ColB ColB Fillden mul Fillden sub 1 add def
  ColR ColG ColB setrgbcolor} def
/BoxColFill {gsave Rec PolyFill} def
/PolyFill {gsave Density fill grestore grestore} def
/h {rlineto rlineto rlineto gsave closepath fill grestore} bind def
%
% PostScript Level 1 Pattern Fill routine for rectangles
% Usage: x y w h s a XX PatternFill
%	x,y = lower left corner of box to be filled
%	w,h = width and height of box
%	  a = angle in degrees between lines and x-axis
%	 XX = 0/1 for no/yes cross-hatch
%
/PatternFill {gsave /PFa [ 9 2 roll ] def
  PFa 0 get PFa 2 get 2 div add PFa 1 get PFa 3 get 2 div add translate
  PFa 2 get -2 div PFa 3 get -2 div PFa 2 get PFa 3 get Rec
  gsave 1 setgray fill grestore clip
  currentlinewidth 0.5 mul setlinewidth
  /PFs PFa 2 get dup mul PFa 3 get dup mul add sqrt def
  0 0 M PFa 5 get rotate PFs -2 div dup translate
  0 1 PFs PFa 4 get div 1 add floor cvi
	{PFa 4 get mul 0 M 0 PFs V} for
  0 PFa 6 get ne {
	0 1 PFs PFa 4 get div 1 add floor cvi
	{PFa 4 get mul 0 2 1 roll M PFs 0 V} for
 } if
  stroke grestore} def
%
/languagelevel where
 {pop languagelevel} {1} ifelse
 2 lt
	{/InterpretLevel1 true def}
	{/InterpretLevel1 Level1 def}
 ifelse
%
% PostScript level 2 pattern fill definitions
%
/Level2PatternFill {
/Tile8x8 {/PaintType 2 /PatternType 1 /TilingType 1 /BBox [0 0 8 8] /XStep 8 /YStep 8}
	bind def
/KeepColor {currentrgbcolor [/Pattern /DeviceRGB] setcolorspace} bind def
<< Tile8x8
 /PaintProc {0.5 setlinewidth pop 0 0 M 8 8 L 0 8 M 8 0 L stroke} 
>> matrix makepattern
/Pat1 exch def
<< Tile8x8
 /PaintProc {0.5 setlinewidth pop 0 0 M 8 8 L 0 8 M 8 0 L stroke
	0 4 M 4 8 L 8 4 L 4 0 L 0 4 L stroke}
>> matrix makepattern
/Pat2 exch def
<< Tile8x8
 /PaintProc {0.5 setlinewidth pop 0 0 M 0 8 L
	8 8 L 8 0 L 0 0 L fill}
>> matrix makepattern
/Pat3 exch def
<< Tile8x8
 /PaintProc {0.5 setlinewidth pop -4 8 M 8 -4 L
	0 12 M 12 0 L stroke}
>> matrix makepattern
/Pat4 exch def
<< Tile8x8
 /PaintProc {0.5 setlinewidth pop -4 0 M 8 12 L
	0 -4 M 12 8 L stroke}
>> matrix makepattern
/Pat5 exch def
<< Tile8x8
 /PaintProc {0.5 setlinewidth pop -2 8 M 4 -4 L
	0 12 M 8 -4 L 4 12 M 10 0 L stroke}
>> matrix makepattern
/Pat6 exch def
<< Tile8x8
 /PaintProc {0.5 setlinewidth pop -2 0 M 4 12 L
	0 -4 M 8 12 L 4 -4 M 10 8 L stroke}
>> matrix makepattern
/Pat7 exch def
<< Tile8x8
 /PaintProc {0.5 setlinewidth pop 8 -2 M -4 4 L
	12 0 M -4 8 L 12 4 M 0 10 L stroke}
>> matrix makepattern
/Pat8 exch def
<< Tile8x8
 /PaintProc {0.5 setlinewidth pop 0 -2 M 12 4 L
	-4 0 M 12 8 L -4 4 M 8 10 L stroke}
>> matrix makepattern
/Pat9 exch def
/Pattern1 {PatternBgnd KeepColor Pat1 setpattern} bind def
/Pattern2 {PatternBgnd KeepColor Pat2 setpattern} bind def
/Pattern3 {PatternBgnd KeepColor Pat3 setpattern} bind def
/Pattern4 {PatternBgnd KeepColor Landscape {Pat5} {Pat4} ifelse setpattern} bind def
/Pattern5 {PatternBgnd KeepColor Landscape {Pat4} {Pat5} ifelse setpattern} bind def
/Pattern6 {PatternBgnd KeepColor Landscape {Pat9} {Pat6} ifelse setpattern} bind def
/Pattern7 {PatternBgnd KeepColor Landscape {Pat8} {Pat7} ifelse setpattern} bind def
} def
%
%
%End of PostScript Level 2 code
%
/PatternBgnd {
  TransparentPatterns {} {gsave 1 setgray fill grestore} ifelse
} def
%
% Substitute for Level 2 pattern fill codes with
% grayscale if Level 2 support is not selected.
%
/Level1PatternFill {
/Pattern1 {0.250 Density} bind def
/Pattern2 {0.500 Density} bind def
/Pattern3 {0.750 Density} bind def
/Pattern4 {0.125 Density} bind def
/Pattern5 {0.375 Density} bind def
/Pattern6 {0.625 Density} bind def
/Pattern7 {0.875 Density} bind def
} def
%
% Now test for support of Level 2 code
%
Level1 {Level1PatternFill} {Level2PatternFill} ifelse
%
/Symbol-Oblique /Symbol findfont [1 0 .167 1 0 0] makefont
dup length dict begin {1 index /FID eq {pop pop} {def} ifelse} forall
currentdict end definefont pop
end
%%EndProlog
%%Page: 1 1
gnudict begin
gsave
50 50 translate
0.100 0.100 scale
90 rotate
0 -5040 translate
0 setgray
newpath
(Helvetica) findfont 140 scalefont setfont
1.000 UL
LTb
1.000 UL
LTa
854 783 M
9016 0 V
stroke
LTb
854 783 M
63 0 V
8953 0 R
-63 0 V
770 783 M
( 0) Rshow
1.000 UL
LTb
1.000 UL
LTa
854 1014 M
9016 0 V
stroke
LTb
854 1014 M
63 0 V
8953 0 R
-63 0 V
-9037 0 R
( 0.5) Rshow
1.000 UL
LTb
1.000 UL
LTa
854 1245 M
9016 0 V
stroke
LTb
854 1245 M
63 0 V
8953 0 R
-63 0 V
-9037 0 R
( 1) Rshow
1.000 UL
LTb
1.000 UL
LTa
854 1476 M
9016 0 V
stroke
LTb
854 1476 M
63 0 V
8953 0 R
-63 0 V
-9037 0 R
( 1.5) Rshow
1.000 UL
LTb
1.000 UL
LTa
854 1708 M
9016 0 V
stroke
LTb
854 1708 M
63 0 V
8953 0 R
-63 0 V
-9037 0 R
( 2) Rshow
1.000 UL
LTb
1.000 UL
LTa
854 1939 M
9016 0 V
stroke
LTb
854 1939 M
63 0 V
8953 0 R
-63 0 V
-9037 0 R
( 2.5) Rshow
1.000 UL
LTb
1.000 UL
LTa
854 2170 M
9016 0 V
stroke
LTb
854 2170 M
63 0 V
8953 0 R
-63 0 V
-9037 0 R
( 3) Rshow
1.000 UL
LTb
1.000 UL
LTa
854 2401 M
9016 0 V
stroke
LTb
854 2401 M
63 0 V
8953 0 R
-63 0 V
-9037 0 R
( 3.5) Rshow
1.000 UL
LTb
1.000 UL
LTa
854 2632 M
9016 0 V
stroke
LTb
854 2632 M
63 0 V
8953 0 R
-63 0 V
-9037 0 R
( 4) Rshow
1.000 UL
LTb
1.000 UL
LTa
1548 783 M
0 1849 V
stroke
LTb
1548 783 M
0 63 V
0 1786 R
0 -63 V
0 -1870 R
currentpoint gsave translate -45 rotate 0 0 M
(matmult) Lshow
grestore
1.000 UL
LTb
1.000 UL
LTa
2241 783 M
0 1849 V
stroke
LTb
2241 783 M
0 63 V
0 1786 R
0 -63 V
0 -1870 R
currentpoint gsave translate -45 rotate 0 0 M
(cnt) Lshow
grestore
1.000 UL
LTb
1.000 UL
LTa
2935 783 M
0 1849 V
stroke
LTb
2935 783 M
0 63 V
0 1786 R
0 -63 V
0 -1870 R
currentpoint gsave translate -45 rotate 0 0 M
(fir) Lshow
grestore
1.000 UL
LTb
1.000 UL
LTa
3628 783 M
0 1849 V
stroke
LTb
3628 783 M
0 63 V
0 1786 R
0 -63 V
0 -1870 R
currentpoint gsave translate -45 rotate 0 0 M
(fdct) Lshow
grestore
1.000 UL
LTb
1.000 UL
LTa
4322 783 M
0 1849 V
stroke
LTb
4322 783 M
0 63 V
0 1786 R
0 -63 V
0 -1870 R
currentpoint gsave translate -45 rotate 0 0 M
(expint) Lshow
grestore
1.000 UL
LTb
1.000 UL
LTa
5015 783 M
0 1849 V
stroke
LTb
5015 783 M
0 63 V
0 1786 R
0 -63 V
0 -1870 R
currentpoint gsave translate -45 rotate 0 0 M
(nsichneu) Lshow
grestore
1.000 UL
LTb
1.000 UL
LTa
5709 783 M
0 1849 V
stroke
LTb
5709 783 M
0 63 V
0 1786 R
0 -63 V
0 -1870 R
currentpoint gsave translate -45 rotate 0 0 M
(edn) Lshow
grestore
1.000 UL
LTb
1.000 UL
LTa
6402 783 M
0 1849 V
stroke
LTb
6402 783 M
0 63 V
0 1786 R
0 -63 V
0 -1870 R
currentpoint gsave translate -45 rotate 0 0 M
(ludcmp) Lshow
grestore
1.000 UL
LTb
1.000 UL
LTa
7096 783 M
0 1849 V
stroke
LTb
7096 783 M
0 63 V
0 1786 R
0 -63 V
0 -1870 R
currentpoint gsave translate -45 rotate 0 0 M
(ns) Lshow
grestore
1.000 UL
LTb
1.000 UL
LTa
7789 783 M
0 1849 V
stroke
LTb
7789 783 M
0 63 V
0 1786 R
0 -63 V
0 -1870 R
currentpoint gsave translate -45 rotate 0 0 M
(bsort100) Lshow
grestore
1.000 UL
LTb
1.000 UL
LTa
8483 783 M
0 1849 V
stroke
LTb
8483 783 M
0 63 V
0 1786 R
0 -63 V
0 -1870 R
currentpoint gsave translate -45 rotate 0 0 M
(adpcm) Lshow
grestore
1.000 UL
LTb
1.000 UL
LTa
9176 783 M
0 1849 V
stroke
LTb
9176 783 M
0 63 V
0 1786 R
0 -63 V
0 -1870 R
currentpoint gsave translate -45 rotate 0 0 M
(st) Lshow
grestore
1.000 UL
LTb
1.000 UL
LTb
854 2632 N
854 783 L
9016 0 V
0 1849 V
-9016 0 V
Z stroke
LCb setrgbcolor
280 1707 M
currentpoint gsave translate 90 rotate 0 0 M
(WCET overestimation ratio \(WCET/SIM\)) Cshow
grestore
LTb
LCb setrgbcolor
5362 98 M
(Benchmarks) Cshow
LTb
5362 2842 M
(WCET overestimation w.r.t speculation in various L2 cache setting \(FIFO cache replacement\)) Cshow
1.000 UP
1.000 UL
LTb
1.000 UL
LTb
7767 3899 M
(perfect predictor + L1 cache + shared L2 cache) Rshow
0.330 7851 3864 399 70 BoxColFill
LTb
7851 3864 N
399 0 V
0 70 V
-399 0 V
0 -70 V
Z stroke
0.330 1335 783 79 464 BoxColFill
LTb
1335 783 N
0 463 V
78 0 V
0 -463 V
-78 0 V
Z stroke
0.330 2029 783 79 478 BoxColFill
LTb
2029 783 N
0 477 V
78 0 V
0 -477 V
-78 0 V
Z stroke
0.330 2722 783 79 510 BoxColFill
LTb
2722 783 N
0 509 V
78 0 V
0 -509 V
-78 0 V
Z stroke
0.330 3416 783 79 1293 BoxColFill
LTb
3416 783 N
0 1292 V
78 0 V
0 -1292 V
-78 0 V
Z stroke
0.330 4109 783 79 561 BoxColFill
LTb
4109 783 N
0 560 V
78 0 V
0 -560 V
-78 0 V
Z stroke
0.330 4803 783 79 1075 BoxColFill
LTb
4803 783 N
0 1074 V
78 0 V
0 -1074 V
-78 0 V
Z stroke
0.330 5496 783 79 580 BoxColFill
LTb
5496 783 N
0 579 V
78 0 V
0 -579 V
-78 0 V
Z stroke
0.330 6190 783 79 526 BoxColFill
LTb
6190 783 N
0 525 V
78 0 V
0 -525 V
-78 0 V
Z stroke
0.330 6883 783 79 473 BoxColFill
LTb
6883 783 N
0 472 V
78 0 V
0 -472 V
-78 0 V
Z stroke
0.330 7577 783 79 563 BoxColFill
LTb
7577 783 N
0 562 V
78 0 V
0 -562 V
-78 0 V
Z stroke
0.330 8271 783 79 864 BoxColFill
LTb
8271 783 N
0 863 V
78 0 V
0 -863 V
-78 0 V
Z stroke
0.330 8964 783 79 585 BoxColFill
LTb
8964 783 N
0 584 V
78 0 V
0 -584 V
-78 0 V
Z stroke
1.000 UL
LTb
7767 3759 M
(2 level predictor + L1 cache + shared L2 cache) Rshow
1.000 7851 3724 399 70 BoxColFill
LTb
7851 3724 N
399 0 V
0 70 V
-399 0 V
0 -70 V
Z stroke
1.000 1422 783 79 465 BoxColFill
LTb
1422 783 N
0 464 V
78 0 V
0 -464 V
-78 0 V
Z stroke
1.000 2115 783 79 500 BoxColFill
LTb
2115 783 N
0 499 V
78 0 V
0 -499 V
-78 0 V
Z stroke
1.000 2809 783 79 552 BoxColFill
LTb
2809 783 N
0 551 V
78 0 V
0 -551 V
-78 0 V
Z stroke
1.000 3502 783 79 1128 BoxColFill
LTb
3502 783 N
0 1127 V
78 0 V
0 -1127 V
-78 0 V
Z stroke
1.000 4196 783 79 601 BoxColFill
LTb
4196 783 N
0 600 V
78 0 V
0 -600 V
-78 0 V
Z stroke
1.000 4890 783 79 1107 BoxColFill
LTb
4890 783 N
0 1106 V
78 0 V
0 -1106 V
-78 0 V
Z stroke
1.000 5583 783 79 616 BoxColFill
LTb
5583 783 N
0 615 V
78 0 V
0 -615 V
-78 0 V
Z stroke
1.000 6277 783 79 564 BoxColFill
LTb
6277 783 N
0 563 V
78 0 V
0 -563 V
-78 0 V
Z stroke
1.000 6970 783 79 486 BoxColFill
LTb
6970 783 N
0 485 V
78 0 V
0 -485 V
-78 0 V
Z stroke
1.000 7664 783 79 540 BoxColFill
LTb
7664 783 N
0 539 V
78 0 V
0 -539 V
-78 0 V
Z stroke
1.000 8357 783 79 825 BoxColFill
LTb
8357 783 N
0 824 V
78 0 V
0 -824 V
-78 0 V
Z stroke
1.000 9051 783 79 837 BoxColFill
LTb
9051 783 N
0 836 V
78 0 V
0 -836 V
-78 0 V
Z stroke
1.000 UL
LTb
7767 3619 M
(perfect predictor + L1 cache + vertically partitioned L2 cache) Rshow
7851 3584 399 70 40 45 2 PatternFill
LTb
7851 3584 N
399 0 V
0 70 V
-399 0 V
0 -70 V
Z stroke
1509 783 79 464 40 45 2 PatternFill
LTb
1509 783 N
0 463 V
78 0 V
0 -463 V
-78 0 V
Z stroke
2202 783 79 478 40 45 2 PatternFill
LTb
2202 783 N
0 477 V
78 0 V
0 -477 V
-78 0 V
Z stroke
2896 783 79 510 40 45 2 PatternFill
LTb
2896 783 N
0 509 V
78 0 V
0 -509 V
-78 0 V
Z stroke
3589 783 79 1286 40 45 2 PatternFill
LTb
3589 783 N
0 1285 V
78 0 V
0 -1285 V
-78 0 V
Z stroke
4283 783 79 566 40 45 2 PatternFill
LTb
4283 783 N
0 565 V
78 0 V
0 -565 V
-78 0 V
Z stroke
4976 783 79 1075 40 45 2 PatternFill
LTb
4976 783 N
0 1074 V
78 0 V
0 -1074 V
-78 0 V
Z stroke
5670 783 79 580 40 45 2 PatternFill
LTb
5670 783 N
0 579 V
78 0 V
0 -579 V
-78 0 V
Z stroke
6363 783 79 529 40 45 2 PatternFill
LTb
6363 783 N
0 528 V
78 0 V
0 -528 V
-78 0 V
Z stroke
7057 783 79 473 40 45 2 PatternFill
LTb
7057 783 N
0 472 V
78 0 V
0 -472 V
-78 0 V
Z stroke
7750 783 79 563 40 45 2 PatternFill
LTb
7750 783 N
0 562 V
78 0 V
0 -562 V
-78 0 V
Z stroke
8444 783 79 741 40 45 2 PatternFill
LTb
8444 783 N
0 740 V
78 0 V
0 -740 V
-78 0 V
Z stroke
9137 783 79 585 40 45 2 PatternFill
LTb
9137 783 N
0 584 V
78 0 V
0 -584 V
-78 0 V
Z stroke
1.000 UL
LTb
7767 3479 M
(2 level predictor + L1 cache + vertically partitioned L2 cache) Rshow
7851 3444 399 70 80 -45 1 PatternFill
LTb
7851 3444 N
399 0 V
0 70 V
-399 0 V
0 -70 V
Z stroke
1595 783 79 465 80 -45 1 PatternFill
LTb
1595 783 N
0 464 V
78 0 V
0 -464 V
-78 0 V
Z stroke
2289 783 79 500 80 -45 1 PatternFill
LTb
2289 783 N
0 499 V
78 0 V
0 -499 V
-78 0 V
Z stroke
2982 783 79 552 80 -45 1 PatternFill
LTb
2982 783 N
0 551 V
78 0 V
0 -551 V
-78 0 V
Z stroke
3676 783 79 1128 80 -45 1 PatternFill
LTb
3676 783 N
0 1127 V
78 0 V
0 -1127 V
-78 0 V
Z stroke
4369 783 79 606 80 -45 1 PatternFill
LTb
4369 783 N
0 605 V
78 0 V
0 -605 V
-78 0 V
Z stroke
5063 783 79 1107 80 -45 1 PatternFill
LTb
5063 783 N
0 1106 V
78 0 V
0 -1106 V
-78 0 V
Z stroke
5756 783 79 616 80 -45 1 PatternFill
LTb
5756 783 N
0 615 V
78 0 V
0 -615 V
-78 0 V
Z stroke
6450 783 79 566 80 -45 1 PatternFill
LTb
6450 783 N
0 565 V
78 0 V
0 -565 V
-78 0 V
Z stroke
7144 783 79 486 80 -45 1 PatternFill
LTb
7144 783 N
0 485 V
78 0 V
0 -485 V
-78 0 V
Z stroke
7837 783 79 540 80 -45 1 PatternFill
LTb
7837 783 N
0 539 V
78 0 V
0 -539 V
-78 0 V
Z stroke
8531 783 79 705 80 -45 1 PatternFill
LTb
8531 783 N
0 704 V
78 0 V
0 -704 V
-78 0 V
Z stroke
9224 783 79 837 80 -45 1 PatternFill
LTb
9224 783 N
0 836 V
78 0 V
0 -836 V
-78 0 V
Z stroke
1.000 UL
LTb
7767 3339 M
(perfect predictor + L1 cache + horizontally partitioned L2 cache) Rshow
7851 3304 399 70 BoxFill
LTb
7851 3304 N
399 0 V
0 70 V
-399 0 V
0 -70 V
Z stroke
1682 783 79 464 BoxFill
LTb
1682 783 N
0 463 V
78 0 V
0 -463 V
-78 0 V
Z stroke
2375 783 79 500 BoxFill
LTb
2375 783 N
0 499 V
78 0 V
0 -499 V
-78 0 V
Z stroke
3069 783 79 510 BoxFill
LTb
3069 783 N
0 509 V
78 0 V
0 -509 V
-78 0 V
Z stroke
3763 783 79 1667 BoxFill
LTb
3763 783 N
0 1666 V
78 0 V
0 -1666 V
-78 0 V
Z stroke
4456 783 79 593 BoxFill
LTb
4456 783 N
0 592 V
78 0 V
0 -592 V
-78 0 V
Z stroke
5150 783 79 1075 BoxFill
LTb
5150 783 N
0 1074 V
78 0 V
0 -1074 V
-78 0 V
Z stroke
5843 783 79 580 BoxFill
LTb
5843 783 N
0 579 V
78 0 V
0 -579 V
-78 0 V
Z stroke
6537 783 79 529 BoxFill
LTb
6537 783 N
0 528 V
78 0 V
0 -528 V
-78 0 V
Z stroke
7230 783 79 473 BoxFill
LTb
7230 783 N
0 472 V
78 0 V
0 -472 V
-78 0 V
Z stroke
7924 783 79 567 BoxFill
LTb
7924 783 N
0 566 V
78 0 V
0 -566 V
-78 0 V
Z stroke
8617 783 79 740 BoxFill
LTb
8617 783 N
0 739 V
78 0 V
0 -739 V
-78 0 V
Z stroke
9311 783 79 585 BoxFill
LTb
9311 783 N
0 584 V
78 0 V
0 -584 V
-78 0 V
Z stroke
1.000 UL
LTb
7767 3199 M
(2 level predictor + L1 cache + horizontally partitioned L2 cache) Rshow
7851 3164 399 70 80 45 0 PatternFill
LTb
7851 3164 N
399 0 V
0 70 V
-399 0 V
0 -70 V
Z stroke
1769 783 79 465 80 45 0 PatternFill
LTb
1769 783 N
0 464 V
78 0 V
0 -464 V
-78 0 V
Z stroke
2462 783 79 500 80 45 0 PatternFill
LTb
2462 783 N
0 499 V
78 0 V
0 -499 V
-78 0 V
Z stroke
3156 783 79 552 80 45 0 PatternFill
LTb
3156 783 N
0 551 V
78 0 V
0 -551 V
-78 0 V
Z stroke
3849 783 79 1128 80 45 0 PatternFill
LTb
3849 783 N
0 1127 V
78 0 V
0 -1127 V
-78 0 V
Z stroke
4543 783 79 606 80 45 0 PatternFill
LTb
4543 783 N
0 605 V
78 0 V
0 -605 V
-78 0 V
Z stroke
5236 783 79 1107 80 45 0 PatternFill
LTb
5236 783 N
0 1106 V
78 0 V
0 -1106 V
-78 0 V
Z stroke
5930 783 79 616 80 45 0 PatternFill
LTb
5930 783 N
0 615 V
78 0 V
0 -615 V
-78 0 V
Z stroke
6623 783 79 566 80 45 0 PatternFill
LTb
6623 783 N
0 565 V
78 0 V
0 -565 V
-78 0 V
Z stroke
7317 783 79 486 80 45 0 PatternFill
LTb
7317 783 N
0 485 V
78 0 V
0 -485 V
-78 0 V
Z stroke
8010 783 79 544 80 45 0 PatternFill
LTb
8010 783 N
0 543 V
78 0 V
0 -543 V
-78 0 V
Z stroke
8704 783 79 706 80 45 0 PatternFill
LTb
8704 783 N
0 705 V
78 0 V
0 -705 V
-78 0 V
Z stroke
9398 783 79 837 80 45 0 PatternFill
LTb
9398 783 N
0 836 V
78 0 V
0 -836 V
-78 0 V
Z stroke
1.000 UL
LTb
854 2632 N
854 783 L
9016 0 V
0 1849 V
-9016 0 V
Z stroke
1.000 UP
1.000 UL
LTb
stroke
grestore
end
showpage
%%Trailer
%%DocumentFonts: Helvetica
%%Pages: 1
